%!PS-Adobe-3.0 EPSF-3.0
%%Creator: (MATLAB, The Mathworks, Inc. Version 9.7.0.1296695 \(R2019b\) Update 4. Operating System: Windows 10)
%%Title: fig/anal1.eps
%%CreationDate: 2020-03-02T18:10:59
%%Pages: (atend)
%%BoundingBox:   199   106  1235   696
%%LanguageLevel: 3
%%EndComments
%%BeginProlog
%%BeginResource: procset (Apache XML Graphics Std ProcSet) 1.2 0
%%Version: 1.2 0
%%Copyright: (Copyright 2001-2003,2010 The Apache Software Foundation. License terms: http://www.apache.org/licenses/LICENSE-2.0)
/bd{bind def}bind def
/ld{load def}bd
/GR/grestore ld
/GS/gsave ld
/RM/rmoveto ld
/C/curveto ld
/t/show ld
/L/lineto ld
/ML/setmiterlimit ld
/CT/concat ld
/f/fill ld
/N/newpath ld
/S/stroke ld
/CC/setcmykcolor ld
/A/ashow ld
/cp/closepath ld
/RC/setrgbcolor ld
/LJ/setlinejoin ld
/GC/setgray ld
/LW/setlinewidth ld
/M/moveto ld
/re {4 2 roll M
1 index 0 rlineto
0 exch rlineto
neg 0 rlineto
cp } bd
/_ctm matrix def
/_tm matrix def
/BT { _ctm currentmatrix pop matrix _tm copy pop 0 0 moveto } bd
/ET { _ctm setmatrix } bd
/iTm { _ctm setmatrix _tm concat } bd
/Tm { _tm astore pop iTm 0 0 moveto } bd
/ux 0.0 def
/uy 0.0 def
/F {
  /Tp exch def
  /Tf exch def
  Tf findfont Tp scalefont setfont
  /cf Tf def  /cs Tp def
} bd
/ULS {currentpoint /uy exch def /ux exch def} bd
/ULE {
  /Tcx currentpoint pop def
  gsave
  newpath
  cf findfont cs scalefont dup
  /FontMatrix get 0 get /Ts exch def /FontInfo get dup
  /UnderlinePosition get Ts mul /To exch def
  /UnderlineThickness get Ts mul /Tt exch def
  ux uy To add moveto  Tcx uy To add lineto
  Tt setlinewidth stroke
  grestore
} bd
/OLE {
  /Tcx currentpoint pop def
  gsave
  newpath
  cf findfont cs scalefont dup
  /FontMatrix get 0 get /Ts exch def /FontInfo get dup
  /UnderlinePosition get Ts mul /To exch def
  /UnderlineThickness get Ts mul /Tt exch def
  ux uy To add cs add moveto Tcx uy To add cs add lineto
  Tt setlinewidth stroke
  grestore
} bd
/SOE {
  /Tcx currentpoint pop def
  gsave
  newpath
  cf findfont cs scalefont dup
  /FontMatrix get 0 get /Ts exch def /FontInfo get dup
  /UnderlinePosition get Ts mul /To exch def
  /UnderlineThickness get Ts mul /Tt exch def
  ux uy To add cs 10 mul 26 idiv add moveto Tcx uy To add cs 10 mul 26 idiv add lineto
  Tt setlinewidth stroke
  grestore
} bd
/QT {
/Y22 exch store
/X22 exch store
/Y21 exch store
/X21 exch store
currentpoint
/Y21 load 2 mul add 3 div exch
/X21 load 2 mul add 3 div exch
/X21 load 2 mul /X22 load add 3 div
/Y21 load 2 mul /Y22 load add 3 div
/X22 load /Y22 load curveto
} bd
/SSPD {
dup length /d exch dict def
{
/v exch def
/k exch def
currentpagedevice k known {
/cpdv currentpagedevice k get def
v cpdv ne {
/upd false def
/nullv v type /nulltype eq def
/nullcpdv cpdv type /nulltype eq def
nullv nullcpdv or
{
/upd true def
} {
/sametype v type cpdv type eq def
sametype {
v type /arraytype eq {
/vlen v length def
/cpdvlen cpdv length def
vlen cpdvlen eq {
0 1 vlen 1 sub {
/i exch def
/obj v i get def
/cpdobj cpdv i get def
obj cpdobj ne {
/upd true def
exit
} if
} for
} {
/upd true def
} ifelse
} {
v type /dicttype eq {
v {
/dv exch def
/dk exch def
/cpddv cpdv dk get def
dv cpddv ne {
/upd true def
exit
} if
} forall
} {
/upd true def
} ifelse
} ifelse
} if
} ifelse
upd true eq {
d k v put
} if
} if
} if
} forall
d length 0 gt {
d setpagedevice
} if
} bd
/RE { % /NewFontName [NewEncodingArray] /FontName RE -
  findfont dup length dict begin
  {
    1 index /FID ne
    {def} {pop pop} ifelse
  } forall
  /Encoding exch def
  /FontName 1 index def
  currentdict definefont pop
  end
} bind def
%%EndResource
%%BeginResource: procset (Apache XML Graphics EPS ProcSet) 1.0 0
%%Version: 1.0 0
%%Copyright: (Copyright 2002-2003 The Apache Software Foundation. License terms: http://www.apache.org/licenses/LICENSE-2.0)
/BeginEPSF { %def
/b4_Inc_state save def         % Save state for cleanup
/dict_count countdictstack def % Count objects on dict stack
/op_count count 1 sub def      % Count objects on operand stack
userdict begin                 % Push userdict on dict stack
/showpage { } def              % Redefine showpage, { } = null proc
0 setgray 0 setlinecap         % Prepare graphics state
1 setlinewidth 0 setlinejoin
10 setmiterlimit [ ] 0 setdash newpath
/languagelevel where           % If level not equal to 1 then
{pop languagelevel             % set strokeadjust and
1 ne                           % overprint to their defaults.
{false setstrokeadjust false setoverprint
} if
} if
} bd
/EndEPSF { %def
count op_count sub {pop} repeat            % Clean up stacks
countdictstack dict_count sub {end} repeat
b4_Inc_state restore
} bd
%%EndResource
%FOPBeginFontDict
%%IncludeResource: font Courier-Oblique
%%IncludeResource: font Courier-BoldOblique
%%IncludeResource: font Courier-Bold
%%IncludeResource: font ZapfDingbats
%%IncludeResource: font Symbol
%%IncludeResource: font Helvetica
%%IncludeResource: font Helvetica-Oblique
%%IncludeResource: font Helvetica-Bold
%%IncludeResource: font Helvetica-BoldOblique
%%IncludeResource: font Times-Roman
%%IncludeResource: font Times-Italic
%%IncludeResource: font Times-Bold
%%IncludeResource: font Times-BoldItalic
%%IncludeResource: font Courier
%FOPEndFontDict
%%BeginResource: encoding WinAnsiEncoding
/WinAnsiEncoding [
/.notdef /.notdef /.notdef /.notdef /.notdef
/.notdef /.notdef /.notdef /.notdef /.notdef
/.notdef /.notdef /.notdef /.notdef /.notdef
/.notdef /.notdef /.notdef /.notdef /.notdef
/.notdef /.notdef /.notdef /.notdef /.notdef
/.notdef /.notdef /.notdef /.notdef /.notdef
/.notdef /.notdef /space /exclam /quotedbl
/numbersign /dollar /percent /ampersand /quotesingle
/parenleft /parenright /asterisk /plus /comma
/hyphen /period /slash /zero /one
/two /three /four /five /six
/seven /eight /nine /colon /semicolon
/less /equal /greater /question /at
/A /B /C /D /E
/F /G /H /I /J
/K /L /M /N /O
/P /Q /R /S /T
/U /V /W /X /Y
/Z /bracketleft /backslash /bracketright /asciicircum
/underscore /quoteleft /a /b /c
/d /e /f /g /h
/i /j /k /l /m
/n /o /p /q /r
/s /t /u /v /w
/x /y /z /braceleft /bar
/braceright /asciitilde /bullet /Euro /bullet
/quotesinglbase /florin /quotedblbase /ellipsis /dagger
/daggerdbl /circumflex /perthousand /Scaron /guilsinglleft
/OE /bullet /Zcaron /bullet /bullet
/quoteleft /quoteright /quotedblleft /quotedblright /bullet
/endash /emdash /asciitilde /trademark /scaron
/guilsinglright /oe /bullet /zcaron /Ydieresis
/space /exclamdown /cent /sterling /currency
/yen /brokenbar /section /dieresis /copyright
/ordfeminine /guillemotleft /logicalnot /sfthyphen /registered
/macron /degree /plusminus /twosuperior /threesuperior
/acute /mu /paragraph /middot /cedilla
/onesuperior /ordmasculine /guillemotright /onequarter /onehalf
/threequarters /questiondown /Agrave /Aacute /Acircumflex
/Atilde /Adieresis /Aring /AE /Ccedilla
/Egrave /Eacute /Ecircumflex /Edieresis /Igrave
/Iacute /Icircumflex /Idieresis /Eth /Ntilde
/Ograve /Oacute /Ocircumflex /Otilde /Odieresis
/multiply /Oslash /Ugrave /Uacute /Ucircumflex
/Udieresis /Yacute /Thorn /germandbls /agrave
/aacute /acircumflex /atilde /adieresis /aring
/ae /ccedilla /egrave /eacute /ecircumflex
/edieresis /igrave /iacute /icircumflex /idieresis
/eth /ntilde /ograve /oacute /ocircumflex
/otilde /odieresis /divide /oslash /ugrave
/uacute /ucircumflex /udieresis /yacute /thorn
/ydieresis
] def
%%EndResource
%FOPBeginFontReencode
/Courier-Oblique findfont
dup length dict begin
  {1 index /FID ne {def} {pop pop} ifelse} forall
  /Encoding WinAnsiEncoding def
  currentdict
end
/Courier-Oblique exch definefont pop
/Courier-BoldOblique findfont
dup length dict begin
  {1 index /FID ne {def} {pop pop} ifelse} forall
  /Encoding WinAnsiEncoding def
  currentdict
end
/Courier-BoldOblique exch definefont pop
/Courier-Bold findfont
dup length dict begin
  {1 index /FID ne {def} {pop pop} ifelse} forall
  /Encoding WinAnsiEncoding def
  currentdict
end
/Courier-Bold exch definefont pop
/Helvetica findfont
dup length dict begin
  {1 index /FID ne {def} {pop pop} ifelse} forall
  /Encoding WinAnsiEncoding def
  currentdict
end
/Helvetica exch definefont pop
/Helvetica-Oblique findfont
dup length dict begin
  {1 index /FID ne {def} {pop pop} ifelse} forall
  /Encoding WinAnsiEncoding def
  currentdict
end
/Helvetica-Oblique exch definefont pop
/Helvetica-Bold findfont
dup length dict begin
  {1 index /FID ne {def} {pop pop} ifelse} forall
  /Encoding WinAnsiEncoding def
  currentdict
end
/Helvetica-Bold exch definefont pop
/Helvetica-BoldOblique findfont
dup length dict begin
  {1 index /FID ne {def} {pop pop} ifelse} forall
  /Encoding WinAnsiEncoding def
  currentdict
end
/Helvetica-BoldOblique exch definefont pop
/Times-Roman findfont
dup length dict begin
  {1 index /FID ne {def} {pop pop} ifelse} forall
  /Encoding WinAnsiEncoding def
  currentdict
end
/Times-Roman exch definefont pop
/Times-Italic findfont
dup length dict begin
  {1 index /FID ne {def} {pop pop} ifelse} forall
  /Encoding WinAnsiEncoding def
  currentdict
end
/Times-Italic exch definefont pop
/Times-Bold findfont
dup length dict begin
  {1 index /FID ne {def} {pop pop} ifelse} forall
  /Encoding WinAnsiEncoding def
  currentdict
end
/Times-Bold exch definefont pop
/Times-BoldItalic findfont
dup length dict begin
  {1 index /FID ne {def} {pop pop} ifelse} forall
  /Encoding WinAnsiEncoding def
  currentdict
end
/Times-BoldItalic exch definefont pop
/Courier findfont
dup length dict begin
  {1 index /FID ne {def} {pop pop} ifelse} forall
  /Encoding WinAnsiEncoding def
  currentdict
end
/Courier exch definefont pop
%FOPEndFontReencode
%%EndProlog
%%Page: 1 1
%%PageBoundingBox: 0 0 1440 730
%%BeginPageSetup
[1 0 0 -1 0 730] CT
%%EndPageSetup
GS
[0.75 0 0 0.75 0 0.25] CT
N
0 0 M
1920 0 L
1920 973 L
0 973 L
0 0 L
cp
clip
1 GC
N
0 0 1920 973 re
f
GR
GS
[0.75 0 0 0.75 0 0.25] CT
1 GC
N
0 0 1920 973 re
f
GR
GS
[0.75 0 0 0.75 0 0.25] CT
1 GC
N
401 652 M
1587 652 L
1587 59 L
401 59 L
cp
f
GR
GS
[0.75 0 0 0.75 0 0.25] CT
0.873 GC
1 LJ
0.667 LW
N
401 652 M
401 59 L
S
GR
GS
[0.75 0 0 0.75 0 0.25] CT
0.873 GC
1 LJ
0.667 LW
N
549.25 652 M
549.25 59 L
S
GR
GS
[0.75 0 0 0.75 0 0.25] CT
0.873 GC
1 LJ
0.667 LW
N
697.5 652 M
697.5 59 L
S
GR
GS
[0.75 0 0 0.75 0 0.25] CT
0.873 GC
1 LJ
0.667 LW
N
845.75 652 M
845.75 59 L
S
GR
GS
[0.75 0 0 0.75 0 0.25] CT
0.873 GC
1 LJ
0.667 LW
N
994 652 M
994 59 L
S
GR
GS
[0.75 0 0 0.75 0 0.25] CT
0.873 GC
1 LJ
0.667 LW
N
1142.25 652 M
1142.25 59 L
S
GR
GS
[0.75 0 0 0.75 0 0.25] CT
0.873 GC
1 LJ
0.667 LW
N
1290.5 652 M
1290.5 59 L
S
GR
GS
[0.75 0 0 0.75 0 0.25] CT
0.873 GC
1 LJ
0.667 LW
N
1438.75 652 M
1438.75 59 L
S
GR
GS
[0.75 0 0 0.75 0 0.25] CT
0.873 GC
1 LJ
0.667 LW
N
1587 652 M
1587 59 L
S
GR
GS
[0.75 0 0 0.75 0 0.25] CT
0.873 GC
1 LJ
0.667 LW
N
1587 652 M
401 652 L
S
GR
GS
[0.75 0 0 0.75 0 0.25] CT
0.873 GC
1 LJ
0.667 LW
N
1587 533.4 M
401 533.4 L
S
GR
GS
[0.75 0 0 0.75 0 0.25] CT
0.873 GC
1 LJ
0.667 LW
N
1587 414.8 M
401 414.8 L
S
GR
GS
[0.75 0 0 0.75 0 0.25] CT
0.873 GC
1 LJ
0.667 LW
N
1587 296.2 M
401 296.2 L
S
GR
GS
[0.75 0 0 0.75 0 0.25] CT
0.873 GC
1 LJ
0.667 LW
N
1587 177.6 M
401 177.6 L
S
GR
GS
[0.75 0 0 0.75 0 0.25] CT
0.873 GC
1 LJ
0.667 LW
N
1587 59 M
401 59 L
S
GR
GS
[0.75 0 0 0.75 0 0.25] CT
0.149 GC
2 setlinecap
1 LJ
0.667 LW
N
401 652 M
1587 652 L
S
GR
GS
[0.75 0 0 0.75 0 0.25] CT
0.149 GC
2 setlinecap
1 LJ
0.667 LW
N
401 59 M
1587 59 L
S
GR
GS
[0.75 0 0 0.75 0 0.25] CT
0.149 GC
2 setlinecap
1 LJ
0.667 LW
N
401 652 M
401 663.86 L
S
GR
GS
[0.75 0 0 0.75 0 0.25] CT
0.149 GC
2 setlinecap
1 LJ
0.667 LW
N
549.25 652 M
549.25 663.86 L
S
GR
GS
[0.75 0 0 0.75 0 0.25] CT
0.149 GC
2 setlinecap
1 LJ
0.667 LW
N
697.5 652 M
697.5 663.86 L
S
GR
GS
[0.75 0 0 0.75 0 0.25] CT
0.149 GC
2 setlinecap
1 LJ
0.667 LW
N
845.75 652 M
845.75 663.86 L
S
GR
GS
[0.75 0 0 0.75 0 0.25] CT
0.149 GC
2 setlinecap
1 LJ
0.667 LW
N
994 652 M
994 663.86 L
S
GR
GS
[0.75 0 0 0.75 0 0.25] CT
0.149 GC
2 setlinecap
1 LJ
0.667 LW
N
1142.25 652 M
1142.25 663.86 L
S
GR
GS
[0.75 0 0 0.75 0 0.25] CT
0.149 GC
2 setlinecap
1 LJ
0.667 LW
N
1290.5 652 M
1290.5 663.86 L
S
GR
GS
[0.75 0 0 0.75 0 0.25] CT
0.149 GC
2 setlinecap
1 LJ
0.667 LW
N
1438.75 652 M
1438.75 663.86 L
S
GR
GS
[0.75 0 0 0.75 0 0.25] CT
0.149 GC
2 setlinecap
1 LJ
0.667 LW
N
1587 652 M
1587 663.86 L
S
GR
GS
[0.75 0 0 0.75 0 0.25] CT
0.149 GC
2 setlinecap
1 LJ
0.667 LW
N
401 59 M
401 47.14 L
S
GR
GS
[0.75 0 0 0.75 0 0.25] CT
0.149 GC
2 setlinecap
1 LJ
0.667 LW
N
549.25 59 M
549.25 47.14 L
S
GR
GS
[0.75 0 0 0.75 0 0.25] CT
0.149 GC
2 setlinecap
1 LJ
0.667 LW
N
697.5 59 M
697.5 47.14 L
S
GR
GS
[0.75 0 0 0.75 0 0.25] CT
0.149 GC
2 setlinecap
1 LJ
0.667 LW
N
845.75 59 M
845.75 47.14 L
S
GR
GS
[0.75 0 0 0.75 0 0.25] CT
0.149 GC
2 setlinecap
1 LJ
0.667 LW
N
994 59 M
994 47.14 L
S
GR
GS
[0.75 0 0 0.75 0 0.25] CT
0.149 GC
2 setlinecap
1 LJ
0.667 LW
N
1142.25 59 M
1142.25 47.14 L
S
GR
GS
[0.75 0 0 0.75 0 0.25] CT
0.149 GC
2 setlinecap
1 LJ
0.667 LW
N
1290.5 59 M
1290.5 47.14 L
S
GR
GS
[0.75 0 0 0.75 0 0.25] CT
0.149 GC
2 setlinecap
1 LJ
0.667 LW
N
1438.75 59 M
1438.75 47.14 L
S
GR
GS
[0.75 0 0 0.75 0 0.25] CT
0.149 GC
2 setlinecap
1 LJ
0.667 LW
N
1587 59 M
1587 47.14 L
S
GR
GS
[0.75 0 0 0.75 300.75 506.145] CT
0.149 GC
/Helvetica 40 F
GS
[1 0 0 1 0 0] CT
-62.5 41 moveto 
1 -1 scale
(Feb 24) t 
GR
GR
GS
[0.75 0 0 0.75 411.9375 506.145] CT
0.149 GC
/Helvetica 40 F
GS
[1 0 0 1 0 0] CT
-62.5 41 moveto 
1 -1 scale
(Feb 25) t 
GR
GR
GS
[0.75 0 0 0.75 523.125 506.145] CT
0.149 GC
/Helvetica 40 F
GS
[1 0 0 1 0 0] CT
-62.5 41 moveto 
1 -1 scale
(Feb 26) t 
GR
GR
GS
[0.75 0 0 0.75 634.3125 506.145] CT
0.149 GC
/Helvetica 40 F
GS
[1 0 0 1 0 0] CT
-62.5 41 moveto 
1 -1 scale
(Feb 27) t 
GR
GR
GS
[0.75 0 0 0.75 745.5 506.145] CT
0.149 GC
/Helvetica 40 F
GS
[1 0 0 1 0 0] CT
-62.5 41 moveto 
1 -1 scale
(Feb 28) t 
GR
GR
GS
[0.75 0 0 0.75 856.6875 506.145] CT
0.149 GC
/Helvetica 40 F
GS
[1 0 0 1 0 0] CT
-62.5 41 moveto 
1 -1 scale
(Feb 29) t 
GR
GR
GS
[0.75 0 0 0.75 967.875 506.145] CT
0.149 GC
/Helvetica 40 F
GS
[1 0 0 1 0 0] CT
-62.5 41 moveto 
1 -1 scale
(Mar 01) t 
GR
GR
GS
[0.75 0 0 0.75 1079.0625 506.145] CT
0.149 GC
/Helvetica 40 F
GS
[1 0 0 1 0 0] CT
-62.5 41 moveto 
1 -1 scale
(Mar 02) t 
GR
GR
GS
[0.75 0 0 0.75 1190.25 506.145] CT
0.149 GC
/Helvetica 40 F
GS
[1 0 0 1 0 0] CT
-62.5 41 moveto 
1 -1 scale
(Mar 03) t 
GR
GR
GS
[0.75 0 0 0.75 745.50041 544.64499] CT
0.149 GC
/Helvetica 44 F
GS
[1 0 0 1 0 0] CT
-39.5 45 moveto 
1 -1 scale
(Day) t 
GR
GR
GS
[0.75 0 0 0.75 1190.25 544.64499] CT
0.149 GC
/Helvetica 40 F
GS
[1 0 0 1 0 0] CT
-123 41 moveto 
1 -1 scale
(2020   ) t 
GR
GR
GS
[0.75 0 0 0.75 0 0.25] CT
0.149 GC
2 setlinecap
1 LJ
0.667 LW
N
401 652 M
401 59 L
S
GR
GS
[0.75 0 0 0.75 0 0.25] CT
0.149 GC
2 setlinecap
1 LJ
0.667 LW
N
1587 652 M
1587 59 L
S
GR
GS
[0.75 0 0 0.75 0 0.25] CT
0.149 GC
2 setlinecap
1 LJ
0.667 LW
N
401 652 M
389.14 652 L
S
GR
GS
[0.75 0 0 0.75 0 0.25] CT
0.149 GC
2 setlinecap
1 LJ
0.667 LW
N
401 533.4 M
389.14 533.4 L
S
GR
GS
[0.75 0 0 0.75 0 0.25] CT
0.149 GC
2 setlinecap
1 LJ
0.667 LW
N
401 414.8 M
389.14 414.8 L
S
GR
GS
[0.75 0 0 0.75 0 0.25] CT
0.149 GC
2 setlinecap
1 LJ
0.667 LW
N
401 296.2 M
389.14 296.2 L
S
GR
GS
[0.75 0 0 0.75 0 0.25] CT
0.149 GC
2 setlinecap
1 LJ
0.667 LW
N
401 177.6 M
389.14 177.6 L
S
GR
GS
[0.75 0 0 0.75 0 0.25] CT
0.149 GC
2 setlinecap
1 LJ
0.667 LW
N
401 59 M
389.14 59 L
S
GR
GS
[0.75 0 0 0.75 0 0.25] CT
0.149 GC
2 setlinecap
1 LJ
0.667 LW
N
1587 652 M
1598.86 652 L
S
GR
GS
[0.75 0 0 0.75 0 0.25] CT
0.149 GC
2 setlinecap
1 LJ
0.667 LW
N
1587 533.4 M
1598.86 533.4 L
S
GR
GS
[0.75 0 0 0.75 0 0.25] CT
0.149 GC
2 setlinecap
1 LJ
0.667 LW
N
1587 414.8 M
1598.86 414.8 L
S
GR
GS
[0.75 0 0 0.75 0 0.25] CT
0.149 GC
2 setlinecap
1 LJ
0.667 LW
N
1587 296.2 M
1598.86 296.2 L
S
GR
GS
[0.75 0 0 0.75 0 0.25] CT
0.149 GC
2 setlinecap
1 LJ
0.667 LW
N
1587 177.6 M
1598.86 177.6 L
S
GR
GS
[0.75 0 0 0.75 0 0.25] CT
0.149 GC
2 setlinecap
1 LJ
0.667 LW
N
1587 59 M
1598.86 59 L
S
GR
GS
[0.75 0 0 0.75 283.855 489.25] CT
0.149 GC
/Helvetica 40 F
GS
[1 0 0 1 0 0] CT
-23 16 moveto 
1 -1 scale
(0) t 
GR
GR
GS
[0.75 0 0 0.75 283.855 400.30002] CT
0.149 GC
/Helvetica 40 F
GS
[1 0 0 1 0 0] CT
-45 16 moveto 
1 -1 scale
(20) t 
GR
GR
GS
[0.75 0 0 0.75 283.855 311.34999] CT
0.149 GC
/Helvetica 40 F
GS
[1 0 0 1 0 0] CT
-45 16 moveto 
1 -1 scale
(40) t 
GR
GR
GS
[0.75 0 0 0.75 283.855 222.40001] CT
0.149 GC
/Helvetica 40 F
GS
[1 0 0 1 0 0] CT
-45 16 moveto 
1 -1 scale
(60) t 
GR
GR
GS
[0.75 0 0 0.75 283.855 133.45] CT
0.149 GC
/Helvetica 40 F
GS
[1 0 0 1 0 0] CT
-45 16 moveto 
1 -1 scale
(80) t 
GR
GR
GS
[0.75 0 0 0.75 283.855 44.5] CT
0.149 GC
/Helvetica 40 F
GS
[1 0 0 1 0 0] CT
-67 16 moveto 
1 -1 scale
(100) t 
GR
GR
GS
[0 -0.75 0.75 0 230.605 266.87477] CT
0.149 GC
/Helvetica 44 F
GS
[1 0 0 1 0 0] CT
-190 -10 moveto 
1 -1 scale
(Normalized queries) t 
GR
GR
GS
[0.75 0 0 0.75 0 0.25] CT
0 0.447 0.741 RC
1 LJ
2.667 LW
N
506.01 503.75 M
512.188 503.75 L
518.365 521.54 L
524.542 533.4 L
530.719 515.61 L
536.896 450.38 L
543.073 379.22 L
549.25 266.55 L
555.427 142.02 L
561.604 165.74 L
567.781 230.97 L
573.958 325.85 L
580.135 426.66 L
586.313 474.1 L
592.49 539.33 L
598.667 551.19 L
604.844 563.05 L
611.021 557.12 L
617.198 551.19 L
623.375 557.12 L
629.552 521.54 L
635.729 474.1 L
641.906 480.03 L
648.083 497.82 L
654.26 503.75 L
660.438 503.75 L
666.615 515.61 L
672.792 539.33 L
678.969 533.4 L
685.146 480.03 L
691.323 355.5 L
697.5 201.32 L
703.677 100.51 L
709.854 165.74 L
716.031 219.11 L
722.208 349.57 L
728.385 432.59 L
734.563 485.96 L
740.74 545.26 L
746.917 563.05 L
753.094 563.05 L
759.271 557.12 L
765.448 551.19 L
771.625 557.12 L
777.802 515.61 L
783.979 468.17 L
790.156 468.17 L
796.333 491.89 L
802.51 509.68 L
808.688 503.75 L
814.865 527.47 L
821.042 539.33 L
827.219 533.4 L
833.396 503.75 L
839.573 391.08 L
845.75 225.04 L
851.927 94.58 L
858.104 159.81 L
864.281 236.9 L
870.458 349.57 L
876.635 438.52 L
882.813 480.03 L
888.99 539.33 L
895.167 551.19 L
901.344 563.05 L
907.521 551.19 L
913.698 551.19 L
919.875 551.19 L
926.052 521.54 L
932.229 468.17 L
938.406 468.17 L
944.583 503.75 L
950.76 503.75 L
956.938 509.68 L
963.115 521.54 L
969.292 545.26 L
975.469 521.54 L
981.646 474.1 L
987.823 373.29 L
994 213.18 L
1000.177 106.44 L
1006.354 142.02 L
1012.531 165.74 L
1018.708 313.99 L
1024.885 420.73 L
1031.063 468.17 L
1037.24 533.4 L
1043.417 557.12 L
1049.594 563.05 L
1055.771 557.12 L
1061.948 557.12 L
1068.125 551.19 L
1074.302 521.54 L
1080.479 480.03 L
1086.656 462.24 L
1092.833 485.96 L
1099.01 497.82 L
1105.188 509.68 L
1111.365 521.54 L
1117.542 539.33 L
1123.719 527.47 L
1129.896 485.96 L
1136.073 414.8 L
1142.25 296.2 L
1148.427 147.95 L
1154.604 59 L
1160.781 100.51 L
1166.958 207.25 L
1173.135 367.36 L
1179.313 438.52 L
1185.49 509.68 L
1191.667 521.54 L
1197.844 527.47 L
1204.021 527.47 L
1210.198 521.54 L
1216.375 539.33 L
1222.552 515.61 L
1228.729 468.17 L
1234.906 456.31 L
1241.083 474.1 L
1247.26 497.82 L
1253.438 515.61 L
1259.615 533.4 L
1265.792 557.12 L
1271.969 551.19 L
1278.146 527.47 L
1284.323 456.31 L
1290.5 361.43 L
1296.677 219.11 L
1302.854 70.86 L
1309.031 106.44 L
1315.208 147.95 L
1321.385 319.92 L
1327.563 420.73 L
1333.74 491.89 L
1339.917 533.4 L
1346.094 533.4 L
1352.271 527.47 L
1358.448 527.47 L
1364.625 551.19 L
1370.802 533.4 L
1376.979 491.89 L
1383.156 474.1 L
1389.333 491.89 L
1395.51 503.75 L
1401.688 527.47 L
1407.865 545.26 L
1414.042 551.19 L
1420.219 527.47 L
1426.396 474.1 L
1432.573 379.22 L
1438.75 225.04 L
1444.927 94.58 L
1451.104 130.16 L
1457.281 177.6 L
1463.458 302.13 L
1469.635 414.8 L
1475.813 480.03 L
1481.99 539.33 L
1488.167 563.05 L
1494.344 563.05 L
1500.521 557.12 L
1506.698 557.12 L
1512.875 557.12 L
1519.052 521.54 L
1525.229 480.03 L
1531.406 468.17 L
1537.583 497.82 L
S
GR
GS
[0.75 0 0 0.75 0 0.25] CT
0.851 0.325 0.098 RC
1 LJ
2.667 LW
N
506.01 557.12 M
512.188 551.19 L
518.365 557.12 L
524.542 563.05 L
530.719 551.19 L
536.896 509.68 L
543.073 456.31 L
549.25 367.36 L
555.427 308.06 L
561.604 236.9 L
567.781 278.41 L
573.958 331.78 L
580.135 373.29 L
586.313 450.38 L
592.49 545.26 L
598.667 580.84 L
604.844 592.7 L
611.021 586.77 L
617.198 592.7 L
623.375 586.77 L
629.552 563.05 L
635.729 533.4 L
641.906 539.33 L
648.083 557.12 L
654.26 551.19 L
660.438 551.19 L
666.615 557.12 L
672.792 568.98 L
678.969 563.05 L
685.146 527.47 L
691.323 432.59 L
697.5 343.64 L
703.677 272.48 L
709.854 230.97 L
716.031 260.62 L
722.208 319.92 L
728.385 373.29 L
734.563 456.31 L
740.74 545.26 L
746.917 580.84 L
753.094 592.7 L
759.271 586.77 L
765.448 592.7 L
771.625 580.84 L
777.802 551.19 L
783.979 527.47 L
790.156 527.47 L
796.333 551.19 L
802.51 557.12 L
808.688 557.12 L
814.865 563.05 L
821.042 568.98 L
827.219 563.05 L
833.396 539.33 L
839.573 456.31 L
845.75 367.36 L
851.927 284.34 L
858.104 248.76 L
864.281 278.41 L
870.458 325.85 L
876.635 373.29 L
882.813 450.38 L
888.99 545.26 L
895.167 580.84 L
901.344 592.7 L
907.521 586.77 L
913.698 592.7 L
919.875 580.84 L
926.052 551.19 L
932.229 527.47 L
938.406 533.4 L
944.583 557.12 L
950.76 557.12 L
956.938 551.19 L
963.115 563.05 L
969.292 568.98 L
975.469 551.19 L
981.646 521.54 L
987.823 444.45 L
994 349.57 L
1000.177 272.48 L
1006.354 248.76 L
1012.531 242.83 L
1018.708 313.99 L
1024.885 343.64 L
1031.063 432.59 L
1037.24 539.33 L
1043.417 574.91 L
1049.594 592.7 L
1055.771 592.7 L
1061.948 592.7 L
1068.125 580.84 L
1074.302 551.19 L
1080.479 527.47 L
1086.656 533.4 L
1092.833 545.26 L
1099.01 551.19 L
1105.188 551.19 L
1111.365 557.12 L
1117.542 568.98 L
1123.719 551.19 L
1129.896 527.47 L
1136.073 468.17 L
1142.25 391.08 L
1148.427 302.13 L
1154.604 236.9 L
1160.781 177.6 L
1166.958 207.25 L
1173.135 302.13 L
1179.313 391.08 L
1185.49 497.82 L
1191.667 545.26 L
1197.844 563.05 L
1204.021 568.98 L
1210.198 574.91 L
1216.375 580.84 L
1222.552 551.19 L
1228.729 515.61 L
1234.906 515.61 L
1241.083 533.4 L
1247.26 545.26 L
1253.438 563.05 L
1259.615 574.91 L
1265.792 586.77 L
1271.969 580.84 L
1278.146 557.12 L
1284.323 509.68 L
1290.5 444.45 L
1296.677 337.71 L
1302.854 266.55 L
1309.031 183.53 L
1315.208 165.74 L
1321.385 266.55 L
1327.563 373.29 L
1333.74 480.03 L
1339.917 533.4 L
1346.094 551.19 L
1352.271 557.12 L
1358.448 568.98 L
1364.625 580.84 L
1370.802 563.05 L
1376.979 533.4 L
1383.156 527.47 L
1389.333 539.33 L
1395.51 557.12 L
1401.688 568.98 L
1407.865 580.84 L
1414.042 580.84 L
1420.219 563.05 L
1426.396 527.47 L
1432.573 456.31 L
1438.75 355.5 L
1444.927 290.27 L
1451.104 230.97 L
1457.281 242.83 L
1463.458 296.2 L
1469.635 361.43 L
1475.813 444.45 L
1481.99 539.33 L
1488.167 574.91 L
1494.344 592.7 L
1500.521 592.7 L
1506.698 592.7 L
1512.875 580.84 L
1519.052 557.12 L
1525.229 539.33 L
1531.406 539.33 L
1537.583 557.12 L
S
GR
GS
[0.75 0 0 0.75 0 0.25] CT
0.929 0.694 0.125 RC
1 LJ
2.667 LW
N
506.01 634.21 M
512.188 634.21 L
518.365 634.21 L
524.542 634.21 L
530.719 628.28 L
536.896 622.35 L
543.073 610.49 L
549.25 598.63 L
555.427 586.77 L
561.604 586.77 L
567.781 580.84 L
573.958 574.91 L
580.135 574.91 L
586.313 586.77 L
592.49 616.42 L
598.667 628.28 L
604.844 634.21 L
611.021 640.14 L
617.198 640.14 L
623.375 640.14 L
629.552 634.21 L
635.729 628.28 L
641.906 634.21 L
648.083 634.21 L
654.26 634.21 L
660.438 634.21 L
666.615 634.21 L
672.792 634.21 L
678.969 628.28 L
685.146 622.35 L
691.323 604.56 L
697.5 592.7 L
703.677 574.91 L
709.854 580.84 L
716.031 574.91 L
722.208 568.98 L
728.385 574.91 L
734.563 586.77 L
740.74 616.42 L
746.917 628.28 L
753.094 634.21 L
759.271 634.21 L
765.448 634.21 L
771.625 634.21 L
777.802 622.35 L
783.979 616.42 L
790.156 616.42 L
796.333 622.35 L
802.51 622.35 L
808.688 622.35 L
814.865 622.35 L
821.042 622.35 L
827.219 622.35 L
833.396 616.42 L
839.573 598.63 L
845.75 580.84 L
851.927 568.98 L
858.104 563.05 L
864.281 568.98 L
870.458 563.05 L
876.635 563.05 L
882.813 580.84 L
888.99 604.56 L
895.167 622.35 L
901.344 628.28 L
907.521 628.28 L
913.698 634.21 L
919.875 634.21 L
926.052 628.28 L
932.229 622.35 L
938.406 628.28 L
944.583 628.28 L
950.76 628.28 L
956.938 628.28 L
963.115 628.28 L
969.292 634.21 L
975.469 628.28 L
981.646 616.42 L
987.823 604.56 L
994 586.77 L
1000.177 574.91 L
1006.354 574.91 L
1012.531 574.91 L
1018.708 563.05 L
1024.885 563.05 L
1031.063 580.84 L
1037.24 610.49 L
1043.417 622.35 L
1049.594 634.21 L
1055.771 634.21 L
1061.948 634.21 L
1068.125 634.21 L
1074.302 628.28 L
1080.479 628.28 L
1086.656 628.28 L
1092.833 628.28 L
1099.01 628.28 L
1105.188 628.28 L
1111.365 628.28 L
1117.542 634.21 L
1123.719 628.28 L
1129.896 622.35 L
1136.073 610.49 L
1142.25 598.63 L
1148.427 586.77 L
1154.604 568.98 L
1160.781 574.91 L
1166.958 551.19 L
1173.135 563.05 L
1179.313 563.05 L
1185.49 598.63 L
1191.667 610.49 L
1197.844 622.35 L
1204.021 628.28 L
1210.198 628.28 L
1216.375 634.21 L
1222.552 628.28 L
1228.729 622.35 L
1234.906 622.35 L
1241.083 622.35 L
1247.26 628.28 L
1253.438 634.21 L
1259.615 634.21 L
1265.792 640.14 L
1271.969 634.21 L
1278.146 628.28 L
1284.323 616.42 L
1290.5 604.56 L
1296.677 586.77 L
1302.854 580.84 L
1309.031 568.98 L
1315.208 568.98 L
1321.385 568.98 L
1327.563 568.98 L
1333.74 592.7 L
1339.917 610.49 L
1346.094 622.35 L
1352.271 628.28 L
1358.448 628.28 L
1364.625 634.21 L
1370.802 634.21 L
1376.979 628.28 L
1383.156 628.28 L
1389.333 628.28 L
1395.51 628.28 L
1401.688 634.21 L
1407.865 640.14 L
1414.042 640.14 L
1420.219 634.21 L
1426.396 628.28 L
1432.573 610.49 L
1438.75 598.63 L
1444.927 592.7 L
1451.104 580.84 L
1457.281 580.84 L
1463.458 580.84 L
1469.635 568.98 L
1475.813 586.77 L
1481.99 610.49 L
1488.167 628.28 L
1494.344 634.21 L
1500.521 634.21 L
1506.698 640.14 L
1512.875 634.21 L
1519.052 628.28 L
1525.229 628.28 L
1531.406 628.28 L
1537.583 634.21 L
S
GR
GS
[0.75 0 0 0.75 0 0.25] CT
0.494 0.184 0.557 RC
1 LJ
2.667 LW
N
506.01 616.42 M
512.188 610.49 L
518.365 616.42 L
524.542 622.35 L
530.719 610.49 L
536.896 592.7 L
543.073 574.91 L
549.25 539.33 L
555.427 527.47 L
561.604 527.47 L
567.781 539.33 L
573.958 545.26 L
580.135 533.4 L
586.313 539.33 L
592.49 586.77 L
598.667 610.49 L
604.844 622.35 L
611.021 628.28 L
617.198 628.28 L
623.375 628.28 L
629.552 616.42 L
635.729 610.49 L
641.906 604.56 L
648.083 610.49 L
654.26 610.49 L
660.438 610.49 L
666.615 616.42 L
672.792 622.35 L
678.969 616.42 L
685.146 592.7 L
691.323 539.33 L
697.5 533.4 L
703.677 521.54 L
709.854 533.4 L
716.031 539.33 L
722.208 545.26 L
728.385 521.54 L
734.563 539.33 L
740.74 586.77 L
746.917 610.49 L
753.094 622.35 L
759.271 622.35 L
765.448 628.28 L
771.625 622.35 L
777.802 610.49 L
783.979 604.56 L
790.156 604.56 L
796.333 610.49 L
802.51 616.42 L
808.688 616.42 L
814.865 616.42 L
821.042 622.35 L
827.219 616.42 L
833.396 604.56 L
839.573 563.05 L
845.75 533.4 L
851.927 515.61 L
858.104 533.4 L
864.281 539.33 L
870.458 533.4 L
876.635 527.47 L
882.813 533.4 L
888.99 580.84 L
895.167 610.49 L
901.344 622.35 L
907.521 622.35 L
913.698 628.28 L
919.875 622.35 L
926.052 610.49 L
932.229 604.56 L
938.406 604.56 L
944.583 610.49 L
950.76 610.49 L
956.938 616.42 L
963.115 616.42 L
969.292 622.35 L
975.469 610.49 L
981.646 592.7 L
987.823 563.05 L
994 539.33 L
1000.177 509.68 L
1006.354 521.54 L
1012.531 539.33 L
1018.708 527.47 L
1024.885 515.61 L
1031.063 527.47 L
1037.24 580.84 L
1043.417 604.56 L
1049.594 622.35 L
1055.771 622.35 L
1061.948 628.28 L
1068.125 622.35 L
1074.302 610.49 L
1080.479 604.56 L
1086.656 604.56 L
1092.833 604.56 L
1099.01 610.49 L
1105.188 610.49 L
1111.365 616.42 L
1117.542 622.35 L
1123.719 610.49 L
1129.896 598.63 L
1136.073 574.91 L
1142.25 545.26 L
1148.427 521.54 L
1154.604 509.68 L
1160.781 503.75 L
1166.958 503.75 L
1173.135 509.68 L
1179.313 497.82 L
1185.49 557.12 L
1191.667 586.77 L
1197.844 604.56 L
1204.021 610.49 L
1210.198 616.42 L
1216.375 622.35 L
1222.552 610.49 L
1228.729 598.63 L
1234.906 586.77 L
1241.083 598.63 L
1247.26 604.56 L
1253.438 610.49 L
1259.615 622.35 L
1265.792 628.28 L
1271.969 622.35 L
1278.146 604.56 L
1284.323 586.77 L
1290.5 557.12 L
1296.677 527.47 L
1302.854 521.54 L
1309.031 503.75 L
1315.208 515.61 L
1321.385 515.61 L
1327.563 515.61 L
1333.74 551.19 L
1339.917 580.84 L
1346.094 598.63 L
1352.271 610.49 L
1358.448 616.42 L
1364.625 622.35 L
1370.802 616.42 L
1376.979 604.56 L
1383.156 598.63 L
1389.333 604.56 L
1395.51 610.49 L
1401.688 616.42 L
1407.865 628.28 L
1414.042 628.28 L
1420.219 616.42 L
1426.396 598.63 L
1432.573 574.91 L
1438.75 545.26 L
1444.927 527.47 L
1451.104 533.4 L
1457.281 539.33 L
1463.458 539.33 L
1469.635 521.54 L
1475.813 539.33 L
1481.99 586.77 L
1488.167 604.56 L
1494.344 616.42 L
1500.521 622.35 L
1506.698 622.35 L
1512.875 622.35 L
1519.052 610.49 L
1525.229 604.56 L
1531.406 604.56 L
1537.583 610.49 L
S
GR
GS
[0.75 0 0 0.75 0 0.25] CT
0.467 0.675 0.188 RC
1 LJ
2.667 LW
N
506.01 622.35 M
512.188 616.42 L
518.365 622.35 L
524.542 622.35 L
530.719 616.42 L
536.896 604.56 L
543.073 586.77 L
549.25 557.12 L
555.427 533.4 L
561.604 527.47 L
567.781 533.4 L
573.958 539.33 L
580.135 533.4 L
586.313 551.19 L
592.49 598.63 L
598.667 616.42 L
604.844 628.28 L
611.021 628.28 L
617.198 634.21 L
623.375 628.28 L
629.552 622.35 L
635.729 616.42 L
641.906 616.42 L
648.083 622.35 L
654.26 622.35 L
660.438 622.35 L
666.615 622.35 L
672.792 622.35 L
678.969 622.35 L
685.146 610.49 L
691.323 574.91 L
697.5 551.19 L
703.677 533.4 L
709.854 533.4 L
716.031 545.26 L
722.208 539.33 L
728.385 527.47 L
734.563 557.12 L
740.74 592.7 L
746.917 616.42 L
753.094 628.28 L
759.271 628.28 L
765.448 628.28 L
771.625 628.28 L
777.802 622.35 L
783.979 616.42 L
790.156 616.42 L
796.333 622.35 L
802.51 622.35 L
808.688 622.35 L
814.865 622.35 L
821.042 628.28 L
827.219 622.35 L
833.396 616.42 L
839.573 592.7 L
845.75 551.19 L
851.927 533.4 L
858.104 533.4 L
864.281 533.4 L
870.458 533.4 L
876.635 545.26 L
882.813 551.19 L
888.99 592.7 L
895.167 616.42 L
901.344 628.28 L
907.521 628.28 L
913.698 628.28 L
919.875 628.28 L
926.052 616.42 L
932.229 616.42 L
938.406 616.42 L
944.583 622.35 L
950.76 622.35 L
956.938 622.35 L
963.115 622.35 L
969.292 628.28 L
975.469 622.35 L
981.646 610.49 L
987.823 586.77 L
994 551.19 L
1000.177 527.47 L
1006.354 521.54 L
1012.531 521.54 L
1018.708 527.47 L
1024.885 527.47 L
1031.063 551.19 L
1037.24 592.7 L
1043.417 616.42 L
1049.594 622.35 L
1055.771 628.28 L
1061.948 628.28 L
1068.125 628.28 L
1074.302 622.35 L
1080.479 616.42 L
1086.656 616.42 L
1092.833 616.42 L
1099.01 616.42 L
1105.188 616.42 L
1111.365 622.35 L
1117.542 628.28 L
1123.719 622.35 L
1129.896 610.49 L
1136.073 592.7 L
1142.25 568.98 L
1148.427 551.19 L
1154.604 521.54 L
1160.781 509.68 L
1166.958 521.54 L
1173.135 515.61 L
1179.313 527.47 L
1185.49 574.91 L
1191.667 598.63 L
1197.844 610.49 L
1204.021 616.42 L
1210.198 622.35 L
1216.375 622.35 L
1222.552 616.42 L
1228.729 610.49 L
1234.906 610.49 L
1241.083 610.49 L
1247.26 616.42 L
1253.438 622.35 L
1259.615 628.28 L
1265.792 628.28 L
1271.969 628.28 L
1278.146 616.42 L
1284.323 598.63 L
1290.5 580.84 L
1296.677 551.19 L
1302.854 521.54 L
1309.031 509.68 L
1315.208 515.61 L
1321.385 515.61 L
1327.563 533.4 L
1333.74 563.05 L
1339.917 592.7 L
1346.094 604.56 L
1352.271 610.49 L
1358.448 622.35 L
1364.625 622.35 L
1370.802 622.35 L
1376.979 616.42 L
1383.156 610.49 L
1389.333 616.42 L
1395.51 616.42 L
1401.688 622.35 L
1407.865 628.28 L
1414.042 628.28 L
1420.219 622.35 L
1426.396 610.49 L
1432.573 592.7 L
1438.75 563.05 L
1444.927 539.33 L
1451.104 533.4 L
1457.281 545.26 L
1463.458 533.4 L
1469.635 539.33 L
1475.813 557.12 L
1481.99 592.7 L
1488.167 616.42 L
1494.344 622.35 L
1500.521 628.28 L
1506.698 628.28 L
1512.875 628.28 L
1519.052 622.35 L
1525.229 616.42 L
1531.406 616.42 L
1537.583 622.35 L
S
GR
GS
[0.75 0 0 0.75 432.75 612.625] CT
/Helvetica 36 F
GS
[1 0 0 1 0 0] CT
0 14.5 moveto 
1 -1 scale
(PornHub) t 
GR
GR
GS
[0.75 0 0 0.75 0 0.25] CT
0 0.447 0.741 RC
1 LJ
2.667 LW
N
534 816.5 M
574 816.5 L
S
GR
GS
[0.75 0 0 0.75 578.25 612.625] CT
/Helvetica 36 F
GS
[1 0 0 1 0 0] CT
0 14.5 moveto 
1 -1 scale
(XNXX) t 
GR
GR
GS
[0.75 0 0 0.75 0 0.25] CT
0.851 0.325 0.098 RC
1 LJ
2.667 LW
N
728 816.5 M
768 816.5 L
S
GR
GS
[0.75 0 0 0.75 690.75 612.625] CT
/Helvetica 36 F
GS
[1 0 0 1 0 0] CT
0 14.5 moveto 
1 -1 scale
(XHamster) t 
GR
GR
GS
[0.75 0 0 0.75 0 0.25] CT
0.929 0.694 0.125 RC
1 LJ
2.667 LW
N
878 816.5 M
918 816.5 L
S
GR
GS
[0.75 0 0 0.75 849.75 612.625] CT
/Helvetica 36 F
GS
[1 0 0 1 0 0] CT
0 14.5 moveto 
1 -1 scale
(YouPorn) t 
GR
GR
GS
[0.75 0 0 0.75 0 0.25] CT
0.494 0.184 0.557 RC
1 LJ
2.667 LW
N
1090 816.5 M
1130 816.5 L
S
GR
GS
[0.75 0 0 0.75 993.75 612.625] CT
/Helvetica 36 F
GS
[1 0 0 1 0 0] CT
0 14.5 moveto 
1 -1 scale
(Xvideos) t 
GR
GR
GS
[0.75 0 0 0.75 0 0.25] CT
0.467 0.675 0.188 RC
1 LJ
2.667 LW
N
1282 816.5 M
1322 816.5 L
S
GR
%%Trailer
%%Pages: 1
%%EOF
