%!PS-Adobe-3.0 EPSF-3.0
%%Creator: (MATLAB, The Mathworks, Inc. Version 9.7.0.1296695 \(R2019b\) Update 4. Operating System: Windows 10)
%%Title: fig/anal2.eps
%%CreationDate: 2020-03-02T18:11:01
%%Pages: (atend)
%%BoundingBox:   235   115  1191   696
%%LanguageLevel: 3
%%EndComments
%%BeginProlog
%%BeginResource: procset (Apache XML Graphics Std ProcSet) 1.2 0
%%Version: 1.2 0
%%Copyright: (Copyright 2001-2003,2010 The Apache Software Foundation. License terms: http://www.apache.org/licenses/LICENSE-2.0)
/bd{bind def}bind def
/ld{load def}bd
/GR/grestore ld
/GS/gsave ld
/RM/rmoveto ld
/C/curveto ld
/t/show ld
/L/lineto ld
/ML/setmiterlimit ld
/CT/concat ld
/f/fill ld
/N/newpath ld
/S/stroke ld
/CC/setcmykcolor ld
/A/ashow ld
/cp/closepath ld
/RC/setrgbcolor ld
/LJ/setlinejoin ld
/GC/setgray ld
/LW/setlinewidth ld
/M/moveto ld
/re {4 2 roll M
1 index 0 rlineto
0 exch rlineto
neg 0 rlineto
cp } bd
/_ctm matrix def
/_tm matrix def
/BT { _ctm currentmatrix pop matrix _tm copy pop 0 0 moveto } bd
/ET { _ctm setmatrix } bd
/iTm { _ctm setmatrix _tm concat } bd
/Tm { _tm astore pop iTm 0 0 moveto } bd
/ux 0.0 def
/uy 0.0 def
/F {
  /Tp exch def
  /Tf exch def
  Tf findfont Tp scalefont setfont
  /cf Tf def  /cs Tp def
} bd
/ULS {currentpoint /uy exch def /ux exch def} bd
/ULE {
  /Tcx currentpoint pop def
  gsave
  newpath
  cf findfont cs scalefont dup
  /FontMatrix get 0 get /Ts exch def /FontInfo get dup
  /UnderlinePosition get Ts mul /To exch def
  /UnderlineThickness get Ts mul /Tt exch def
  ux uy To add moveto  Tcx uy To add lineto
  Tt setlinewidth stroke
  grestore
} bd
/OLE {
  /Tcx currentpoint pop def
  gsave
  newpath
  cf findfont cs scalefont dup
  /FontMatrix get 0 get /Ts exch def /FontInfo get dup
  /UnderlinePosition get Ts mul /To exch def
  /UnderlineThickness get Ts mul /Tt exch def
  ux uy To add cs add moveto Tcx uy To add cs add lineto
  Tt setlinewidth stroke
  grestore
} bd
/SOE {
  /Tcx currentpoint pop def
  gsave
  newpath
  cf findfont cs scalefont dup
  /FontMatrix get 0 get /Ts exch def /FontInfo get dup
  /UnderlinePosition get Ts mul /To exch def
  /UnderlineThickness get Ts mul /Tt exch def
  ux uy To add cs 10 mul 26 idiv add moveto Tcx uy To add cs 10 mul 26 idiv add lineto
  Tt setlinewidth stroke
  grestore
} bd
/QT {
/Y22 exch store
/X22 exch store
/Y21 exch store
/X21 exch store
currentpoint
/Y21 load 2 mul add 3 div exch
/X21 load 2 mul add 3 div exch
/X21 load 2 mul /X22 load add 3 div
/Y21 load 2 mul /Y22 load add 3 div
/X22 load /Y22 load curveto
} bd
/SSPD {
dup length /d exch dict def
{
/v exch def
/k exch def
currentpagedevice k known {
/cpdv currentpagedevice k get def
v cpdv ne {
/upd false def
/nullv v type /nulltype eq def
/nullcpdv cpdv type /nulltype eq def
nullv nullcpdv or
{
/upd true def
} {
/sametype v type cpdv type eq def
sametype {
v type /arraytype eq {
/vlen v length def
/cpdvlen cpdv length def
vlen cpdvlen eq {
0 1 vlen 1 sub {
/i exch def
/obj v i get def
/cpdobj cpdv i get def
obj cpdobj ne {
/upd true def
exit
} if
} for
} {
/upd true def
} ifelse
} {
v type /dicttype eq {
v {
/dv exch def
/dk exch def
/cpddv cpdv dk get def
dv cpddv ne {
/upd true def
exit
} if
} forall
} {
/upd true def
} ifelse
} ifelse
} if
} ifelse
upd true eq {
d k v put
} if
} if
} if
} forall
d length 0 gt {
d setpagedevice
} if
} bd
/RE { % /NewFontName [NewEncodingArray] /FontName RE -
  findfont dup length dict begin
  {
    1 index /FID ne
    {def} {pop pop} ifelse
  } forall
  /Encoding exch def
  /FontName 1 index def
  currentdict definefont pop
  end
} bind def
%%EndResource
%%BeginResource: procset (Apache XML Graphics EPS ProcSet) 1.0 0
%%Version: 1.0 0
%%Copyright: (Copyright 2002-2003 The Apache Software Foundation. License terms: http://www.apache.org/licenses/LICENSE-2.0)
/BeginEPSF { %def
/b4_Inc_state save def         % Save state for cleanup
/dict_count countdictstack def % Count objects on dict stack
/op_count count 1 sub def      % Count objects on operand stack
userdict begin                 % Push userdict on dict stack
/showpage { } def              % Redefine showpage, { } = null proc
0 setgray 0 setlinecap         % Prepare graphics state
1 setlinewidth 0 setlinejoin
10 setmiterlimit [ ] 0 setdash newpath
/languagelevel where           % If level not equal to 1 then
{pop languagelevel             % set strokeadjust and
1 ne                           % overprint to their defaults.
{false setstrokeadjust false setoverprint
} if
} if
} bd
/EndEPSF { %def
count op_count sub {pop} repeat            % Clean up stacks
countdictstack dict_count sub {end} repeat
b4_Inc_state restore
} bd
%%EndResource
%FOPBeginFontDict
%%IncludeResource: font Courier-Oblique
%%IncludeResource: font Courier-BoldOblique
%%IncludeResource: font Courier-Bold
%%IncludeResource: font ZapfDingbats
%%IncludeResource: font Symbol
%%IncludeResource: font Helvetica
%%IncludeResource: font Helvetica-Oblique
%%IncludeResource: font Helvetica-Bold
%%IncludeResource: font Helvetica-BoldOblique
%%IncludeResource: font Times-Roman
%%IncludeResource: font Times-Italic
%%IncludeResource: font Times-Bold
%%IncludeResource: font Times-BoldItalic
%%IncludeResource: font Courier
%FOPEndFontDict
%%BeginResource: encoding WinAnsiEncoding
/WinAnsiEncoding [
/.notdef /.notdef /.notdef /.notdef /.notdef
/.notdef /.notdef /.notdef /.notdef /.notdef
/.notdef /.notdef /.notdef /.notdef /.notdef
/.notdef /.notdef /.notdef /.notdef /.notdef
/.notdef /.notdef /.notdef /.notdef /.notdef
/.notdef /.notdef /.notdef /.notdef /.notdef
/.notdef /.notdef /space /exclam /quotedbl
/numbersign /dollar /percent /ampersand /quotesingle
/parenleft /parenright /asterisk /plus /comma
/hyphen /period /slash /zero /one
/two /three /four /five /six
/seven /eight /nine /colon /semicolon
/less /equal /greater /question /at
/A /B /C /D /E
/F /G /H /I /J
/K /L /M /N /O
/P /Q /R /S /T
/U /V /W /X /Y
/Z /bracketleft /backslash /bracketright /asciicircum
/underscore /quoteleft /a /b /c
/d /e /f /g /h
/i /j /k /l /m
/n /o /p /q /r
/s /t /u /v /w
/x /y /z /braceleft /bar
/braceright /asciitilde /bullet /Euro /bullet
/quotesinglbase /florin /quotedblbase /ellipsis /dagger
/daggerdbl /circumflex /perthousand /Scaron /guilsinglleft
/OE /bullet /Zcaron /bullet /bullet
/quoteleft /quoteright /quotedblleft /quotedblright /bullet
/endash /emdash /asciitilde /trademark /scaron
/guilsinglright /oe /bullet /zcaron /Ydieresis
/space /exclamdown /cent /sterling /currency
/yen /brokenbar /section /dieresis /copyright
/ordfeminine /guillemotleft /logicalnot /sfthyphen /registered
/macron /degree /plusminus /twosuperior /threesuperior
/acute /mu /paragraph /middot /cedilla
/onesuperior /ordmasculine /guillemotright /onequarter /onehalf
/threequarters /questiondown /Agrave /Aacute /Acircumflex
/Atilde /Adieresis /Aring /AE /Ccedilla
/Egrave /Eacute /Ecircumflex /Edieresis /Igrave
/Iacute /Icircumflex /Idieresis /Eth /Ntilde
/Ograve /Oacute /Ocircumflex /Otilde /Odieresis
/multiply /Oslash /Ugrave /Uacute /Ucircumflex
/Udieresis /Yacute /Thorn /germandbls /agrave
/aacute /acircumflex /atilde /adieresis /aring
/ae /ccedilla /egrave /eacute /ecircumflex
/edieresis /igrave /iacute /icircumflex /idieresis
/eth /ntilde /ograve /oacute /ocircumflex
/otilde /odieresis /divide /oslash /ugrave
/uacute /ucircumflex /udieresis /yacute /thorn
/ydieresis
] def
%%EndResource
%FOPBeginFontReencode
/Courier-Oblique findfont
dup length dict begin
  {1 index /FID ne {def} {pop pop} ifelse} forall
  /Encoding WinAnsiEncoding def
  currentdict
end
/Courier-Oblique exch definefont pop
/Courier-BoldOblique findfont
dup length dict begin
  {1 index /FID ne {def} {pop pop} ifelse} forall
  /Encoding WinAnsiEncoding def
  currentdict
end
/Courier-BoldOblique exch definefont pop
/Courier-Bold findfont
dup length dict begin
  {1 index /FID ne {def} {pop pop} ifelse} forall
  /Encoding WinAnsiEncoding def
  currentdict
end
/Courier-Bold exch definefont pop
/Helvetica findfont
dup length dict begin
  {1 index /FID ne {def} {pop pop} ifelse} forall
  /Encoding WinAnsiEncoding def
  currentdict
end
/Helvetica exch definefont pop
/Helvetica-Oblique findfont
dup length dict begin
  {1 index /FID ne {def} {pop pop} ifelse} forall
  /Encoding WinAnsiEncoding def
  currentdict
end
/Helvetica-Oblique exch definefont pop
/Helvetica-Bold findfont
dup length dict begin
  {1 index /FID ne {def} {pop pop} ifelse} forall
  /Encoding WinAnsiEncoding def
  currentdict
end
/Helvetica-Bold exch definefont pop
/Helvetica-BoldOblique findfont
dup length dict begin
  {1 index /FID ne {def} {pop pop} ifelse} forall
  /Encoding WinAnsiEncoding def
  currentdict
end
/Helvetica-BoldOblique exch definefont pop
/Times-Roman findfont
dup length dict begin
  {1 index /FID ne {def} {pop pop} ifelse} forall
  /Encoding WinAnsiEncoding def
  currentdict
end
/Times-Roman exch definefont pop
/Times-Italic findfont
dup length dict begin
  {1 index /FID ne {def} {pop pop} ifelse} forall
  /Encoding WinAnsiEncoding def
  currentdict
end
/Times-Italic exch definefont pop
/Times-Bold findfont
dup length dict begin
  {1 index /FID ne {def} {pop pop} ifelse} forall
  /Encoding WinAnsiEncoding def
  currentdict
end
/Times-Bold exch definefont pop
/Times-BoldItalic findfont
dup length dict begin
  {1 index /FID ne {def} {pop pop} ifelse} forall
  /Encoding WinAnsiEncoding def
  currentdict
end
/Times-BoldItalic exch definefont pop
/Courier findfont
dup length dict begin
  {1 index /FID ne {def} {pop pop} ifelse} forall
  /Encoding WinAnsiEncoding def
  currentdict
end
/Courier exch definefont pop
%FOPEndFontReencode
%%EndProlog
%%Page: 1 1
%%PageBoundingBox: 0 0 1440 730
%%BeginPageSetup
[1 0 0 -1 0 730] CT
%%EndPageSetup
GS
[0.75 0 0 0.75 0 0.25] CT
N
0 0 M
1920 0 L
1920 973 L
0 973 L
0 0 L
cp
clip
1 GC
N
0 0 1920 973 re
f
GR
GS
[0.75 0 0 0.75 0 0.25] CT
1 GC
N
0 0 1920 973 re
f
GR
GS
[0.75 0 0 0.75 0 0.25] CT
1 GC
N
426 626 M
1562 626 L
1562 58 L
426 58 L
cp
f
GR
GS
[0.75 0 0 0.75 0 0.25] CT
0.873 GC
1 LJ
0.667 LW
N
426 626 M
426 58 L
S
GR
GS
[0.75 0 0 0.75 0 0.25] CT
0.873 GC
1 LJ
0.667 LW
N
653.2 626 M
653.2 58 L
S
GR
GS
[0.75 0 0 0.75 0 0.25] CT
0.873 GC
1 LJ
0.667 LW
N
880.4 626 M
880.4 58 L
S
GR
GS
[0.75 0 0 0.75 0 0.25] CT
0.873 GC
1 LJ
0.667 LW
N
1107.6 626 M
1107.6 58 L
S
GR
GS
[0.75 0 0 0.75 0 0.25] CT
0.873 GC
1 LJ
0.667 LW
N
1334.8 626 M
1334.8 58 L
S
GR
GS
[0.75 0 0 0.75 0 0.25] CT
0.873 GC
1 LJ
0.667 LW
N
1562 626 M
1562 58 L
S
GR
GS
[0.75 0 0 0.75 0 0.25] CT
0.873 GC
1 LJ
0.667 LW
N
1562 626 M
426 626 L
S
GR
GS
[0.75 0 0 0.75 0 0.25] CT
0.873 GC
1 LJ
0.667 LW
N
1562 531.333 M
426 531.333 L
S
GR
GS
[0.75 0 0 0.75 0 0.25] CT
0.873 GC
1 LJ
0.667 LW
N
1562 436.667 M
426 436.667 L
S
GR
GS
[0.75 0 0 0.75 0 0.25] CT
0.873 GC
1 LJ
0.667 LW
N
1562 342 M
426 342 L
S
GR
GS
[0.75 0 0 0.75 0 0.25] CT
0.873 GC
1 LJ
0.667 LW
N
1562 247.333 M
426 247.333 L
S
GR
GS
[0.75 0 0 0.75 0 0.25] CT
0.873 GC
1 LJ
0.667 LW
N
1562 152.667 M
426 152.667 L
S
GR
GS
[0.75 0 0 0.75 0 0.25] CT
0.873 GC
1 LJ
0.667 LW
N
1562 58 M
426 58 L
S
GR
GS
[0.75 0 0 0.75 0 0.25] CT
0.149 GC
2 setlinecap
1 LJ
0.667 LW
N
426 626 M
1562 626 L
S
GR
GS
[0.75 0 0 0.75 0 0.25] CT
0.149 GC
2 setlinecap
1 LJ
0.667 LW
N
426 58 M
1562 58 L
S
GR
GS
[0.75 0 0 0.75 0 0.25] CT
0.149 GC
2 setlinecap
1 LJ
0.667 LW
N
426 626 M
426 637.36 L
S
GR
GS
[0.75 0 0 0.75 0 0.25] CT
0.149 GC
2 setlinecap
1 LJ
0.667 LW
N
653.2 626 M
653.2 637.36 L
S
GR
GS
[0.75 0 0 0.75 0 0.25] CT
0.149 GC
2 setlinecap
1 LJ
0.667 LW
N
880.4 626 M
880.4 637.36 L
S
GR
GS
[0.75 0 0 0.75 0 0.25] CT
0.149 GC
2 setlinecap
1 LJ
0.667 LW
N
1107.6 626 M
1107.6 637.36 L
S
GR
GS
[0.75 0 0 0.75 0 0.25] CT
0.149 GC
2 setlinecap
1 LJ
0.667 LW
N
1334.8 626 M
1334.8 637.36 L
S
GR
GS
[0.75 0 0 0.75 0 0.25] CT
0.149 GC
2 setlinecap
1 LJ
0.667 LW
N
1562 626 M
1562 637.36 L
S
GR
GS
[0.75 0 0 0.75 0 0.25] CT
0.149 GC
2 setlinecap
1 LJ
0.667 LW
N
426 58 M
426 46.64 L
S
GR
GS
[0.75 0 0 0.75 0 0.25] CT
0.149 GC
2 setlinecap
1 LJ
0.667 LW
N
653.2 58 M
653.2 46.64 L
S
GR
GS
[0.75 0 0 0.75 0 0.25] CT
0.149 GC
2 setlinecap
1 LJ
0.667 LW
N
880.4 58 M
880.4 46.64 L
S
GR
GS
[0.75 0 0 0.75 0 0.25] CT
0.149 GC
2 setlinecap
1 LJ
0.667 LW
N
1107.6 58 M
1107.6 46.64 L
S
GR
GS
[0.75 0 0 0.75 0 0.25] CT
0.149 GC
2 setlinecap
1 LJ
0.667 LW
N
1334.8 58 M
1334.8 46.64 L
S
GR
GS
[0.75 0 0 0.75 0 0.25] CT
0.149 GC
2 setlinecap
1 LJ
0.667 LW
N
1562 58 M
1562 46.64 L
S
GR
GS
[0.75 0 0 0.75 319.5 486.27] CT
0.149 GC
/Helvetica 40 F
GS
[1 0 0 1 0 0] CT
-11.5 41 moveto 
1 -1 scale
(0) t 
GR
GR
GS
[0.75 0 0 0.75 489.90001 486.27] CT
0.149 GC
/Helvetica 40 F
GS
[1 0 0 1 0 0] CT
-28 41 moveto 
1 -1 scale
(0.1) t 
GR
GR
GS
[0.75 0 0 0.75 660.30002 486.27] CT
0.149 GC
/Helvetica 40 F
GS
[1 0 0 1 0 0] CT
-28 41 moveto 
1 -1 scale
(0.2) t 
GR
GR
GS
[0.75 0 0 0.75 830.69998 486.27] CT
0.149 GC
/Helvetica 40 F
GS
[1 0 0 1 0 0] CT
-28 41 moveto 
1 -1 scale
(0.3) t 
GR
GR
GS
[0.75 0 0 0.75 1001.10004 486.27] CT
0.149 GC
/Helvetica 40 F
GS
[1 0 0 1 0 0] CT
-28 41 moveto 
1 -1 scale
(0.4) t 
GR
GR
GS
[0.75 0 0 0.75 1171.5 486.27] CT
0.149 GC
/Helvetica 40 F
GS
[1 0 0 1 0 0] CT
-28 41 moveto 
1 -1 scale
(0.5) t 
GR
GR
GS
[0.75 0 0 0.75 632.25 568] CT
0.149 GC
/Helvetica 44 F
GS
[1 0 0 1 0 0] CT
0 0 moveto 
1 -1 scale
(Frequency [h) t 
GR
GR
GS
[0.75 0 0 0.75 825 551.5] CT
0.149 GC
/Helvetica 35.2 F
GS
[1 0 0 1 0 0] CT
0 0 moveto 
1 -1 scale
(-1) t 
GR
GR
GS
[0.75 0 0 0.75 849 568] CT
0.149 GC
/Helvetica 44 F
GS
[1 0 0 1 0 0] CT
0 0 moveto 
1 -1 scale
(]) t 
GR
GR
GS
[0.75 0 0 0.75 0 0.25] CT
0.149 GC
2 setlinecap
1 LJ
0.667 LW
N
426 626 M
426 58 L
S
GR
GS
[0.75 0 0 0.75 0 0.25] CT
0.149 GC
2 setlinecap
1 LJ
0.667 LW
N
1562 626 M
1562 58 L
S
GR
GS
[0.75 0 0 0.75 0 0.25] CT
0.149 GC
2 setlinecap
1 LJ
0.667 LW
N
426 626 M
414.64 626 L
S
GR
GS
[0.75 0 0 0.75 0 0.25] CT
0.149 GC
2 setlinecap
1 LJ
0.667 LW
N
426 531.333 M
414.64 531.333 L
S
GR
GS
[0.75 0 0 0.75 0 0.25] CT
0.149 GC
2 setlinecap
1 LJ
0.667 LW
N
426 436.667 M
414.64 436.667 L
S
GR
GS
[0.75 0 0 0.75 0 0.25] CT
0.149 GC
2 setlinecap
1 LJ
0.667 LW
N
426 342 M
414.64 342 L
S
GR
GS
[0.75 0 0 0.75 0 0.25] CT
0.149 GC
2 setlinecap
1 LJ
0.667 LW
N
426 247.333 M
414.64 247.333 L
S
GR
GS
[0.75 0 0 0.75 0 0.25] CT
0.149 GC
2 setlinecap
1 LJ
0.667 LW
N
426 152.667 M
414.64 152.667 L
S
GR
GS
[0.75 0 0 0.75 0 0.25] CT
0.149 GC
2 setlinecap
1 LJ
0.667 LW
N
426 58 M
414.64 58 L
S
GR
GS
[0.75 0 0 0.75 0 0.25] CT
0.149 GC
2 setlinecap
1 LJ
0.667 LW
N
1562 626 M
1573.36 626 L
S
GR
GS
[0.75 0 0 0.75 0 0.25] CT
0.149 GC
2 setlinecap
1 LJ
0.667 LW
N
1562 531.333 M
1573.36 531.333 L
S
GR
GS
[0.75 0 0 0.75 0 0.25] CT
0.149 GC
2 setlinecap
1 LJ
0.667 LW
N
1562 436.667 M
1573.36 436.667 L
S
GR
GS
[0.75 0 0 0.75 0 0.25] CT
0.149 GC
2 setlinecap
1 LJ
0.667 LW
N
1562 342 M
1573.36 342 L
S
GR
GS
[0.75 0 0 0.75 0 0.25] CT
0.149 GC
2 setlinecap
1 LJ
0.667 LW
N
1562 247.333 M
1573.36 247.333 L
S
GR
GS
[0.75 0 0 0.75 0 0.25] CT
0.149 GC
2 setlinecap
1 LJ
0.667 LW
N
1562 152.667 M
1573.36 152.667 L
S
GR
GS
[0.75 0 0 0.75 0 0.25] CT
0.149 GC
2 setlinecap
1 LJ
0.667 LW
N
1562 58 M
1573.36 58 L
S
GR
GS
[0.75 0 0 0.75 302.98 469.75] CT
0.149 GC
/Helvetica 40 F
GS
[1 0 0 1 0 0] CT
-23 16 moveto 
1 -1 scale
(0) t 
GR
GR
GS
[0.75 0 0 0.75 302.98 398.74998] CT
0.149 GC
/Helvetica 40 F
GS
[1 0 0 1 0 0] CT
-23 16 moveto 
1 -1 scale
(2) t 
GR
GR
GS
[0.75 0 0 0.75 302.98 327.74999] CT
0.149 GC
/Helvetica 40 F
GS
[1 0 0 1 0 0] CT
-23 16 moveto 
1 -1 scale
(4) t 
GR
GR
GS
[0.75 0 0 0.75 302.98 256.75] CT
0.149 GC
/Helvetica 40 F
GS
[1 0 0 1 0 0] CT
-23 16 moveto 
1 -1 scale
(6) t 
GR
GR
GS
[0.75 0 0 0.75 302.98 185.75] CT
0.149 GC
/Helvetica 40 F
GS
[1 0 0 1 0 0] CT
-23 16 moveto 
1 -1 scale
(8) t 
GR
GR
GS
[0.75 0 0 0.75 302.98 114.75] CT
0.149 GC
/Helvetica 40 F
GS
[1 0 0 1 0 0] CT
-45 16 moveto 
1 -1 scale
(10) t 
GR
GR
GS
[0.75 0 0 0.75 302.98 43.75] CT
0.149 GC
/Helvetica 40 F
GS
[1 0 0 1 0 0] CT
-45 16 moveto 
1 -1 scale
(12) t 
GR
GR
GS
[0 -0.75 0.75 0 266.23 256.74979] CT
0.149 GC
/Helvetica 44 F
GS
[1 0 0 1 0 0] CT
-98 -10 moveto 
1 -1 scale
(Amplitude) t 
GR
GR
GS
[0.75 0 0 0.75 0 0.25] CT
0 0.447 0.741 RC
1 LJ
2.667 LW
N
426 626 M
428.705 624.362 L
431.41 619.328 L
434.114 610.898 L
436.819 600.027 L
439.524 588.964 L
442.229 580.849 L
444.933 578.731 L
447.638 584.379 L
450.343 597.268 L
453.048 613.634 L
455.752 615.695 L
458.457 605.289 L
461.162 602.948 L
463.867 610.736 L
466.571 621.395 L
469.276 606.036 L
471.981 593.068 L
474.686 590.964 L
477.39 601.835 L
480.095 613.874 L
482.8 593.336 L
485.505 571.965 L
488.21 564.787 L
490.914 576.491 L
493.619 598.843 L
496.324 588.66 L
499.029 561.93 L
501.733 558.13 L
504.438 593.86 L
507.143 575.706 L
509.848 456.189 L
512.552 317.439 L
515.257 187.285 L
517.962 95.048 L
520.667 63.939 L
523.371 104.451 L
526.076 210.863 L
528.781 361.973 L
531.486 525.392 L
534.19 574.574 L
536.895 481.08 L
539.6 446.835 L
542.305 472.101 L
545.01 538.639 L
547.714 594.063 L
550.419 540.503 L
553.124 500.631 L
555.829 501.395 L
558.533 539.294 L
561.238 596.107 L
563.943 586.517 L
566.648 547.617 L
569.352 539.002 L
572.057 562.492 L
574.762 606.123 L
577.467 591.558 L
580.171 557.235 L
582.876 550.141 L
585.581 573.051 L
588.286 604.171 L
590.99 569.948 L
593.695 536.294 L
596.4 537.438 L
599.105 584.094 L
601.81 572.216 L
604.514 450.989 L
607.219 322.884 L
609.924 215.737 L
612.629 153.016 L
615.333 148.498 L
618.038 202.997 L
620.743 304.445 L
623.448 431.166 L
626.152 556.765 L
628.857 585.868 L
631.562 523.506 L
634.267 503.173 L
636.971 520.836 L
639.676 561.928 L
642.381 599.064 L
645.086 582.589 L
647.79 562.882 L
650.495 563.805 L
653.2 583.072 L
655.905 608.408 L
658.609 601.441 L
661.314 583.909 L
664.019 579.849 L
666.724 590.112 L
669.429 608.163 L
672.133 610.716 L
674.838 597.396 L
677.543 592.622 L
680.248 598.974 L
682.952 610.394 L
685.657 609.887 L
688.362 603.767 L
691.067 609.502 L
693.771 619.397 L
696.476 581.414 L
699.181 534.134 L
701.886 487.375 L
704.59 451.425 L
707.295 434.554 L
710 440.915 L
712.705 469.555 L
715.41 514.757 L
718.114 567.553 L
720.819 617.731 L
723.524 594.248 L
726.229 570.984 L
728.933 565.144 L
731.638 573.859 L
734.343 590.908 L
737.048 606.393 L
739.752 606.599 L
742.457 600.466 L
745.162 600.162 L
747.867 606.523 L
750.571 615.582 L
753.276 615.807 L
755.981 608.584 L
758.686 604.411 L
761.391 604.835 L
764.095 608.297 L
766.8 611.32 L
769.505 611.115 L
772.21 609.526 L
774.914 609.391 L
777.619 611.255 L
780.324 613.587 L
783.029 613.04 L
785.733 607.072 L
788.438 596.271 L
791.143 581.976 L
793.848 566.235 L
796.552 552.057 L
799.257 542.823 L
801.962 541.359 L
804.667 549.086 L
807.371 565.506 L
810.076 588.176 L
812.781 613.097 L
815.486 615.127 L
818.19 598.106 L
820.895 589.244 L
823.6 589.159 L
826.305 596.289 L
829.01 607.369 L
831.714 617.209 L
834.419 617.061 L
837.124 613.712 L
839.829 614.484 L
842.533 619.372 L
845.238 625.169 L
847.943 618.211 L
850.648 613.072 L
853.352 611.099 L
856.057 612.398 L
858.762 616.185 L
861.467 621.138 L
864.171 624.39 L
866.876 621.057 L
869.581 618.102 L
872.286 616.025 L
874.99 614.335 L
877.695 612.577 L
880.4 610.634 L
883.105 608.605 L
885.81 606.411 L
888.514 603.617 L
891.219 599.883 L
893.924 595.683 L
896.629 592.365 L
899.333 591.509 L
902.038 594.165 L
904.743 600.237 L
907.448 607.858 L
910.152 612.294 L
912.857 609.84 L
915.562 605.981 L
918.267 605.25 L
920.971 608.516 L
923.676 614.443 L
926.381 619.16 L
929.086 617.668 L
931.79 615.314 L
934.495 616.155 L
937.2 620.421 L
939.905 624.824 L
942.609 618.403 L
945.314 613.518 L
948.019 611.669 L
950.724 613.164 L
953.429 617.228 L
956.133 621.844 L
958.838 621.629 L
961.543 618.597 L
964.248 617.16 L
966.952 617.545 L
969.657 618.881 L
972.362 619.984 L
975.067 620.3 L
977.771 619.93 L
980.476 618.287 L
983.181 614.863 L
985.886 610.457 L
988.59 606.415 L
991.295 603.982 L
994 604.008 L
996.705 606.735 L
999.41 611.648 L
1002.114 617.206 L
1004.819 619.633 L
1007.524 617.068 L
1010.229 614.606 L
1012.933 614.361 L
1015.638 616.357 L
1018.343 619.742 L
1021.048 623.212 L
1023.752 624.677 L
1026.457 624.066 L
1029.162 624.49 L
1031.867 625.627 L
1034.571 624.684 L
1037.276 624.07 L
1039.981 624.373 L
1042.686 623.908 L
1045.391 621.893 L
1048.095 620.135 L
1050.8 619.765 L
1053.505 621.281 L
1056.209 624.437 L
1058.914 623.29 L
1061.619 619.471 L
1064.324 616.954 L
1067.029 616.372 L
1069.733 617.7 L
1072.438 620.369 L
1075.143 623.382 L
1077.848 622.831 L
1080.552 618.623 L
1083.257 613.648 L
1085.962 608.912 L
1088.667 605.71 L
1091.371 605.282 L
1094.076 608.234 L
1096.781 614.068 L
1099.486 620.107 L
1102.19 618.203 L
1104.895 613.049 L
1107.6 610.633 L
1110.305 611.904 L
1113.01 616.091 L
1115.714 620.576 L
1118.419 619.983 L
1121.124 617.182 L
1123.829 616.507 L
1126.533 618.172 L
1129.238 620.125 L
1131.943 619.115 L
1134.648 616.703 L
1137.352 615.656 L
1140.057 616.729 L
1142.762 619.507 L
1145.467 623.002 L
1148.171 625.653 L
1150.876 623.276 L
1153.581 621.392 L
1156.286 619.68 L
1158.99 618.248 L
1161.695 617.653 L
1164.4 618.303 L
1167.105 620.019 L
1169.81 621.811 L
1172.514 622.103 L
1175.219 621.1 L
1177.924 619.983 L
1180.629 618.717 L
1183.333 617.144 L
1186.038 615.775 L
1188.743 615.308 L
1191.448 615.934 L
1194.152 617.056 L
1196.857 617.718 L
1199.562 617.879 L
1202.267 618.573 L
1204.971 620.311 L
1207.676 621.398 L
1210.381 619.107 L
1213.086 615.903 L
1215.791 614.186 L
1218.495 614.842 L
1221.2 617.655 L
1223.905 621.195 L
1226.609 621.998 L
1229.314 620.234 L
1232.019 619.707 L
1234.724 620.861 L
1237.429 621.568 L
1240.133 619.54 L
1242.838 617.176 L
1245.543 616.478 L
1248.248 617.961 L
1250.952 621.117 L
1253.657 624.566 L
1256.362 623.927 L
1259.067 622.91 L
1261.771 622.891 L
1264.476 620.363 L
1267.181 615.518 L
1269.886 610.671 L
1272.59 607.459 L
1275.295 606.874 L
1278 609.119 L
1280.705 613.568 L
1283.41 618.755 L
1286.114 621.383 L
1288.819 619.272 L
1291.524 617.218 L
1294.229 616.947 L
1296.933 618.287 L
1299.638 620.216 L
1302.343 620.923 L
1305.048 619.729 L
1307.752 618.282 L
1310.457 617.717 L
1313.162 618.351 L
1315.867 620.091 L
1318.571 622.602 L
1321.276 624.922 L
1323.981 622.98 L
1326.686 620.411 L
1329.391 618.516 L
1332.095 617.575 L
1334.8 617.561 L
1337.505 618.018 L
1340.209 618.149 L
1342.914 617.575 L
1345.619 616.895 L
1348.324 616.953 L
1351.029 618.045 L
1353.733 619.599 L
1356.438 620.119 L
1359.143 618.881 L
1361.848 617.093 L
1364.552 615.559 L
1367.257 614.246 L
1369.962 613.079 L
1372.667 612.516 L
1375.371 613.314 L
1378.076 615.855 L
1380.781 619.315 L
1383.486 619.987 L
1386.19 616.536 L
1388.895 613.386 L
1391.6 612.525 L
1394.305 614.181 L
1397.01 617.105 L
1399.714 618.385 L
1402.419 616.809 L
1405.124 615.417 L
1407.829 616.225 L
1410.533 619.426 L
1413.238 623.831 L
1415.943 622.296 L
1418.648 618.771 L
1421.352 617.351 L
1424.057 618.291 L
1426.762 620.875 L
1429.467 623.097 L
1432.171 622.1 L
1434.876 620.618 L
1437.581 620.424 L
1440.286 621.391 L
1442.99 622.632 L
1445.695 622.671 L
1448.4 620.918 L
1451.105 618.094 L
1453.81 614.836 L
1456.514 611.969 L
1459.219 610.428 L
1461.924 610.895 L
1464.629 613.515 L
1467.333 617.822 L
1470.038 622.874 L
1472.743 624.303 L
1475.448 620.815 L
1478.152 618.967 L
1480.857 618.694 L
1483.562 619.472 L
1486.267 620.592 L
1488.971 621.509 L
1491.676 622.09 L
1494.381 622.486 L
1497.086 622.763 L
1499.791 622.742 L
1502.495 622.19 L
1505.2 621.276 L
1507.905 620.575 L
1510.609 620.702 L
1513.314 621.987 L
1516.019 623.843 L
1518.724 622.641 L
1521.429 619.636 L
1524.133 617.469 L
1526.838 617.06 L
1529.543 618.568 L
1532.248 621.018 L
1534.952 621.162 L
1537.657 618.403 L
1540.362 616.099 L
1543.067 615.621 L
1545.771 617.12 L
1548.476 620.015 L
1551.181 623.266 L
1553.886 624.842 L
1556.59 623.609 L
1559.295 622.997 L
S
GR
GS
[0.75 0 0 0.75 0 0.25] CT
0.851 0.325 0.098 RC
1 LJ
2.667 LW
N
426 626 M
428.705 623.082 L
431.41 617.098 L
434.114 608.56 L
436.819 599.048 L
439.524 590.46 L
442.229 584.756 L
444.933 583.664 L
447.638 588.179 L
450.343 597.877 L
453.048 609.896 L
455.752 615.093 L
458.457 609.468 L
461.162 607.066 L
463.867 611.952 L
466.571 618.475 L
469.276 608.793 L
471.981 597.976 L
474.686 595.498 L
477.39 604.305 L
480.095 619.266 L
482.8 602.871 L
485.505 583.956 L
488.21 576.832 L
490.914 584.455 L
493.619 594.542 L
496.324 578.953 L
499.029 556.792 L
501.733 555.611 L
504.438 590.196 L
507.143 580.504 L
509.848 468.273 L
512.552 337.464 L
515.257 214.724 L
517.962 127.597 L
520.667 97.859 L
523.371 135.329 L
526.076 234.583 L
528.781 375.696 L
531.486 528.43 L
534.19 581.745 L
536.895 494.501 L
539.6 462.041 L
542.305 484.61 L
545.01 545.472 L
547.714 600.668 L
550.419 552.797 L
553.124 517.172 L
555.829 518.534 L
558.533 553.176 L
561.238 604.994 L
563.943 589.565 L
566.648 555.396 L
569.352 549.16 L
572.057 571.166 L
574.762 611.024 L
577.467 596.894 L
580.171 568.201 L
582.876 564.087 L
585.581 585.162 L
588.286 603.794 L
590.99 569.768 L
593.695 542.237 L
596.4 545.269 L
599.105 586.674 L
601.81 582.901 L
604.514 482.173 L
607.219 377.734 L
609.924 292.632 L
612.629 245.251 L
615.333 245.474 L
618.038 292.524 L
620.743 375.539 L
623.448 476.586 L
626.152 574.471 L
628.857 591.707 L
631.562 544.942 L
634.267 530.176 L
636.971 543.879 L
639.676 574.71 L
642.381 603.495 L
645.086 595.796 L
647.79 581.964 L
650.495 582.212 L
653.2 595.342 L
655.905 613.895 L
658.609 612.518 L
661.314 600.742 L
664.019 597.984 L
666.724 604.54 L
669.429 615.66 L
672.133 615.472 L
674.838 607.185 L
677.543 604.628 L
680.248 608.806 L
682.952 615.448 L
685.657 614.913 L
688.362 611.467 L
691.067 614.602 L
693.771 623.985 L
696.476 604.742 L
699.181 580.753 L
701.886 558.164 L
704.59 542.159 L
707.295 536.383 L
710 542.053 L
712.705 557.751 L
715.41 579.817 L
718.114 602.679 L
720.819 613.257 L
723.524 603.261 L
726.229 595.706 L
728.933 595.03 L
731.638 600.202 L
734.343 608.796 L
737.048 617.87 L
739.752 622.303 L
742.457 619.029 L
745.162 617.342 L
747.867 618.14 L
750.571 620.5 L
753.276 623.149 L
755.981 623.412 L
758.686 620.855 L
761.391 618.002 L
764.095 615.669 L
766.8 614.455 L
769.505 614.548 L
772.21 615.234 L
774.914 614.926 L
777.619 612.855 L
780.324 610.097 L
783.029 607.769 L
785.733 606.007 L
788.438 604.252 L
791.143 602.124 L
793.848 600.053 L
796.552 599.009 L
799.257 599.866 L
801.962 603.081 L
804.667 608.671 L
807.371 616.285 L
810.076 625.04 L
812.781 617.508 L
815.486 609.411 L
818.19 603.828 L
820.895 601.821 L
823.6 603.648 L
826.305 608.421 L
829.01 613.771 L
831.714 615.886 L
834.419 614.496 L
837.124 613.954 L
839.829 616.301 L
842.533 621.246 L
845.238 624.465 L
847.943 619.116 L
850.648 615.896 L
853.352 615.613 L
856.057 617.921 L
858.762 621.111 L
861.467 621.189 L
864.171 618.556 L
866.876 616.77 L
869.581 616.523 L
872.286 617.333 L
874.99 618.263 L
877.695 618.577 L
880.4 618.442 L
883.105 618.804 L
885.81 620.637 L
888.514 623.509 L
891.219 619.145 L
893.924 610.85 L
896.629 602.15 L
899.333 595.122 L
902.038 591.586 L
904.743 592.605 L
907.448 598.087 L
910.152 606.725 L
912.857 616.241 L
915.562 622.707 L
918.267 620.448 L
920.971 619.496 L
923.676 621.878 L
926.381 624.537 L
929.086 620.418 L
931.79 617.406 L
934.495 617.133 L
937.2 619.636 L
939.905 623.622 L
942.609 622.588 L
945.314 619.462 L
948.019 618.631 L
950.724 620.472 L
953.429 624.335 L
956.133 622.935 L
958.838 618.896 L
961.543 616.539 L
964.248 616.252 L
966.952 617.591 L
969.657 619.319 L
972.362 619.969 L
975.067 619.653 L
977.771 619.81 L
980.476 620.973 L
983.181 621.356 L
985.886 618.172 L
988.59 613.311 L
991.295 608.914 L
994 606.399 L
996.705 606.652 L
999.41 609.79 L
1002.114 614.835 L
1004.819 618.86 L
1007.524 617.729 L
1010.229 615.067 L
1012.933 614.726 L
1015.638 617.366 L
1018.343 622.08 L
1021.048 623.844 L
1023.752 620.02 L
1026.457 618.53 L
1029.162 620.023 L
1031.867 623.637 L
1034.571 622.487 L
1037.276 618.49 L
1039.981 616.588 L
1042.686 617.574 L
1045.391 621.083 L
1048.095 624.585 L
1050.8 620.762 L
1053.505 617.701 L
1056.209 616.953 L
1058.914 618.293 L
1061.619 620.499 L
1064.324 621.917 L
1067.029 622.471 L
1069.733 623.414 L
1072.438 622.615 L
1075.143 619.082 L
1077.848 615.669 L
1080.552 614.061 L
1083.257 615.107 L
1085.962 618.727 L
1088.667 623.913 L
1091.371 622.461 L
1094.076 618.389 L
1096.781 616.632 L
1099.486 617.435 L
1102.19 620.206 L
1104.895 623.801 L
1107.6 625.022 L
1110.305 623.142 L
1113.01 622.737 L
1115.714 623.177 L
1118.419 623.372 L
1121.124 623.267 L
1123.829 623.698 L
1126.533 624.329 L
1129.238 623.228 L
1131.943 621.594 L
1134.648 620.956 L
1137.352 621.848 L
1140.057 623.727 L
1142.762 623.053 L
1145.467 620.425 L
1148.171 618.811 L
1150.876 618.995 L
1153.581 620.678 L
1156.286 621.778 L
1158.99 619.875 L
1161.695 617.304 L
1164.4 615.983 L
1167.105 616.389 L
1169.81 618.114 L
1172.514 619.897 L
1175.219 619.918 L
1177.924 618.26 L
1180.629 616.607 L
1183.333 615.971 L
1186.038 616.8 L
1188.743 619.176 L
1191.448 622.768 L
1194.152 624.942 L
1196.857 621.466 L
1199.562 619.442 L
1202.267 619.61 L
1204.971 621.911 L
1207.676 624.087 L
1210.381 620.773 L
1213.086 617.483 L
1215.791 616.215 L
1218.495 617.476 L
1221.2 620.868 L
1223.905 624.754 L
1226.609 622.098 L
1229.314 619.603 L
1232.019 619.389 L
1234.724 621.374 L
1237.429 624.084 L
1240.133 622.236 L
1242.838 619.366 L
1245.543 617.885 L
1248.248 617.909 L
1250.952 618.842 L
1253.657 619.968 L
1256.362 621.092 L
1259.067 622.14 L
1261.771 621.594 L
1264.476 618.915 L
1267.181 616.019 L
1269.886 614.35 L
1272.59 614.626 L
1275.295 616.821 L
1278 620.174 L
1280.705 623.02 L
1283.41 622.719 L
1286.114 621.467 L
1288.819 621.081 L
1291.524 621.173 L
1294.229 621.168 L
1296.933 621.278 L
1299.638 621.964 L
1302.343 622.79 L
1305.048 622.287 L
1307.752 620.954 L
1310.457 620.431 L
1313.162 621.391 L
1315.867 623.297 L
1318.571 622.938 L
1321.276 620.515 L
1323.981 619.111 L
1326.686 619.664 L
1329.391 622.143 L
1332.095 625.217 L
1334.8 622.206 L
1337.505 619.638 L
1340.209 618.994 L
1342.914 620.346 L
1345.619 622.598 L
1348.324 622.297 L
1351.029 619.845 L
1353.733 618.269 L
1356.438 618.283 L
1359.143 619.608 L
1361.848 621.418 L
1364.552 622.783 L
1367.257 623.415 L
1369.962 623.508 L
1372.667 622.668 L
1375.371 621.215 L
1378.076 620.151 L
1380.781 620.174 L
1383.486 621.452 L
1386.19 623.549 L
1388.895 624.567 L
1391.6 623.027 L
1394.305 621.921 L
1397.01 621.675 L
1399.714 621.84 L
1402.419 621.864 L
1405.124 621.843 L
1407.829 622.296 L
1410.533 623.428 L
1413.238 624.806 L
1415.943 624.685 L
1418.648 623.817 L
1421.352 623.517 L
1424.057 623.479 L
1426.762 623.037 L
1429.467 622.409 L
1432.171 622.343 L
1434.876 623.174 L
1437.581 624.386 L
1440.286 623.885 L
1442.99 622.526 L
1445.695 621.95 L
1448.4 622.284 L
1451.105 622.388 L
1453.81 620.961 L
1456.514 618.993 L
1459.219 617.728 L
1461.924 617.654 L
1464.629 618.617 L
1467.333 620.07 L
1470.038 621.529 L
1472.743 622.981 L
1475.448 624.232 L
1478.152 623.18 L
1480.857 620.943 L
1483.562 619.369 L
1486.267 619.28 L
1488.971 620.887 L
1491.676 623.628 L
1494.381 624.023 L
1497.086 621.698 L
1499.791 620.779 L
1502.495 621.86 L
1505.2 624.389 L
1507.905 623.138 L
1510.609 620.002 L
1513.314 618.292 L
1516.019 618.672 L
1518.724 620.938 L
1521.429 623.619 L
1524.133 622.541 L
1526.838 620.484 L
1529.543 620.118 L
1532.248 621.683 L
1534.952 624.393 L
1537.657 623.6 L
1540.362 621.105 L
1543.067 619.867 L
1545.771 619.933 L
1548.476 620.534 L
1551.181 620.749 L
1553.886 620.729 L
1556.59 621.36 L
1559.295 622.944 L
S
GR
GS
[0.75 0 0 0.75 0 0.25] CT
0.929 0.694 0.125 RC
1 LJ
2.667 LW
N
426 626 M
428.705 624.259 L
431.41 620.512 L
434.114 615.841 L
436.819 611.966 L
439.524 610.401 L
442.229 611.924 L
444.933 616.297 L
447.638 622.022 L
450.343 621.436 L
453.048 616.446 L
455.752 613.347 L
458.457 612.746 L
461.162 614.241 L
463.867 616.777 L
466.571 618.742 L
469.276 618.78 L
471.981 617.811 L
474.686 617.648 L
477.39 619.185 L
480.095 622.261 L
482.8 623.761 L
485.505 620.715 L
488.21 618.936 L
490.914 619.796 L
493.619 621.966 L
496.324 619.817 L
499.029 616.349 L
501.733 616.968 L
504.438 623.527 L
507.143 610.353 L
509.848 586.9 L
512.552 559.715 L
515.257 534.188 L
517.962 516.116 L
520.667 510.183 L
523.371 518.587 L
526.076 540.269 L
528.781 571.033 L
531.486 604.544 L
534.19 618.008 L
536.895 598.271 L
539.6 591.07 L
542.305 595.954 L
545.01 609.39 L
547.714 623.291 L
550.419 610.857 L
553.124 602.99 L
555.829 603.318 L
558.533 610.834 L
561.238 622.035 L
563.943 617.992 L
566.648 610.795 L
569.352 609.625 L
572.057 614.392 L
574.762 622.626 L
577.467 619.693 L
580.171 613.885 L
582.876 613.183 L
585.581 617.87 L
588.286 624.376 L
590.99 616.696 L
593.695 611.297 L
596.4 612.072 L
599.105 620.256 L
601.81 617.052 L
604.514 598.644 L
607.219 580.429 L
609.924 566.366 L
612.629 559.426 L
615.333 560.876 L
618.038 570.056 L
620.743 584.682 L
623.448 601.544 L
626.152 617.358 L
628.857 622.411 L
631.562 615.186 L
634.267 612.947 L
636.971 614.626 L
639.676 618.503 L
642.381 622.691 L
645.086 624.528 L
647.79 623.441 L
650.495 623.5 L
653.2 624.663 L
655.905 625.346 L
658.609 624.146 L
661.314 623.493 L
664.019 623.536 L
666.724 623.84 L
669.429 623.735 L
672.133 623.218 L
674.838 622.766 L
677.543 622.567 L
680.248 622.561 L
682.952 622.688 L
685.657 622.975 L
688.362 623.421 L
691.067 623.903 L
693.771 624.296 L
696.476 624.518 L
699.181 623.895 L
701.886 622.07 L
704.59 619.676 L
707.295 617.464 L
710 616.167 L
712.705 616.319 L
715.41 618.065 L
718.114 621.052 L
720.819 624.331 L
723.524 623.796 L
726.229 622.035 L
728.933 621.894 L
731.638 623.406 L
734.343 625.397 L
737.048 622.945 L
739.752 620.846 L
742.457 620.156 L
745.162 621.063 L
747.867 623.137 L
750.571 624.749 L
753.276 623.392 L
755.981 622.543 L
758.686 623.193 L
761.391 625.13 L
764.095 624.016 L
766.8 621.577 L
769.505 620.203 L
772.21 620.402 L
774.914 622.129 L
777.619 624.671 L
780.324 623.896 L
783.029 621.886 L
785.733 621.295 L
788.438 622.45 L
791.143 625.124 L
793.848 623.298 L
796.552 619.659 L
799.257 616.727 L
801.962 615.028 L
804.667 614.744 L
807.371 615.73 L
810.076 617.617 L
812.781 619.94 L
815.486 622.237 L
818.19 624.013 L
820.895 624.535 L
823.6 624.111 L
826.305 623.78 L
829.01 623.604 L
831.714 623.369 L
834.419 623.071 L
837.124 622.93 L
839.829 623.133 L
842.533 623.697 L
845.238 624.467 L
847.943 625.167 L
850.648 625.404 L
853.352 625.21 L
856.057 624.982 L
858.762 624.781 L
861.467 624.671 L
864.171 624.724 L
866.876 624.876 L
869.581 624.898 L
872.286 624.759 L
874.99 624.769 L
877.695 625.176 L
880.4 625.545 L
883.105 624.275 L
885.81 622.495 L
888.514 620.479 L
891.219 618.406 L
893.924 616.514 L
896.629 615.14 L
899.333 614.652 L
902.038 615.313 L
904.743 617.128 L
907.448 619.725 L
910.152 622.177 L
912.857 622.82 L
915.562 622.016 L
918.267 621.806 L
920.971 622.721 L
923.676 624.312 L
926.381 624.45 L
929.086 623.106 L
931.79 622.529 L
934.495 623.129 L
937.2 624.717 L
939.905 625.226 L
942.609 623.451 L
945.314 622.523 L
948.019 622.744 L
950.724 623.972 L
953.429 625.083 L
956.133 623.786 L
958.838 622.625 L
961.543 622.457 L
964.248 623.338 L
966.952 624.927 L
969.657 625.334 L
972.362 624.106 L
975.067 623.779 L
977.771 624.312 L
980.476 624.293 L
983.181 622.546 L
985.886 620.556 L
988.59 619.117 L
991.295 618.584 L
994 619.024 L
996.705 620.283 L
999.41 622.077 L
1002.114 624.087 L
1004.819 625.777 L
1007.524 624.346 L
1010.229 623.295 L
1012.933 622.893 L
1015.638 623.078 L
1018.343 623.534 L
1021.048 623.738 L
1023.752 623.56 L
1026.457 623.505 L
1029.162 623.974 L
1031.867 625.012 L
1034.571 625.617 L
1037.276 624.3 L
1039.981 623.417 L
1042.686 623.207 L
1045.391 623.68 L
1048.095 624.616 L
1050.8 625.638 L
1053.505 625.588 L
1056.209 625.382 L
1058.914 625.625 L
1061.619 625.15 L
1064.324 624.209 L
1067.029 623.466 L
1069.733 623.197 L
1072.438 623.462 L
1075.143 624.067 L
1077.848 624.571 L
1080.552 624.598 L
1083.257 624.494 L
1085.962 624.653 L
1088.667 625.02 L
1091.371 625.125 L
1094.076 624.817 L
1096.781 624.613 L
1099.486 624.765 L
1102.19 625.253 L
1104.895 625.709 L
1107.6 625.149 L
1110.305 624.544 L
1113.01 624.16 L
1115.714 624.053 L
1118.419 624.235 L
1121.124 624.679 L
1123.829 625.245 L
1126.533 625.335 L
1129.238 624.824 L
1131.943 624.458 L
1134.648 624.468 L
1137.352 624.836 L
1140.057 625.248 L
1142.762 625.09 L
1145.467 624.737 L
1148.171 624.716 L
1150.876 625.123 L
1153.581 625.697 L
1156.286 625.252 L
1158.99 624.755 L
1161.695 624.704 L
1164.4 625.045 L
1167.105 624.984 L
1169.81 624.129 L
1172.514 623.317 L
1175.219 622.978 L
1177.924 623.245 L
1180.629 623.999 L
1183.333 624.873 L
1186.038 625.218 L
1188.743 625.083 L
1191.448 625.163 L
1194.152 625.029 L
1196.857 624.199 L
1199.562 623.292 L
1202.267 622.791 L
1204.971 622.931 L
1207.676 623.705 L
1210.381 624.852 L
1213.086 625.357 L
1215.791 624.565 L
1218.495 624.126 L
1221.2 624.264 L
1223.905 624.805 L
1226.609 625.107 L
1229.314 624.589 L
1232.019 623.983 L
1234.724 623.655 L
1237.429 623.653 L
1240.133 623.93 L
1242.838 624.375 L
1245.543 624.682 L
1248.248 624.38 L
1250.952 623.696 L
1253.657 623.14 L
1256.362 623.009 L
1259.067 623.415 L
1261.771 624.288 L
1264.476 625.394 L
1267.181 625.403 L
1269.886 624.601 L
1272.59 624.188 L
1275.295 624.15 L
1278 624.313 L
1280.705 624.495 L
1283.41 624.683 L
1286.114 624.98 L
1288.819 625.379 L
1291.524 625.456 L
1294.229 625.052 L
1296.933 624.66 L
1299.638 624.366 L
1302.343 624.096 L
1305.048 623.837 L
1307.752 623.701 L
1310.457 623.762 L
1313.162 623.872 L
1315.867 623.684 L
1318.571 623.167 L
1321.276 622.713 L
1323.981 622.674 L
1326.686 623.176 L
1329.391 624.121 L
1332.095 625.224 L
1334.8 625.451 L
1337.505 624.712 L
1340.209 624.122 L
1342.914 623.585 L
1345.619 623.082 L
1348.324 622.815 L
1351.029 623.024 L
1353.733 623.772 L
1356.438 624.714 L
1359.143 624.549 L
1361.848 623.549 L
1364.552 622.868 L
1367.257 622.743 L
1369.962 622.983 L
1372.667 623.171 L
1375.371 623.148 L
1378.076 623.274 L
1380.781 623.928 L
1383.486 625.036 L
1386.19 624.63 L
1388.895 623.033 L
1391.6 621.796 L
1394.305 621.314 L
1397.01 621.68 L
1399.714 622.724 L
1402.419 624.085 L
1405.124 625.268 L
1407.829 625.347 L
1410.533 625.038 L
1413.238 625.075 L
1415.943 625.279 L
1418.648 625.352 L
1421.352 625.115 L
1424.057 624.549 L
1426.762 623.763 L
1429.467 623.003 L
1432.171 622.555 L
1434.876 622.615 L
1437.581 623.213 L
1440.286 624.19 L
1442.99 625.261 L
1445.695 625.792 L
1448.4 625.213 L
1451.105 624.681 L
1453.81 623.91 L
1456.514 622.957 L
1459.219 622.134 L
1461.924 621.724 L
1464.629 621.85 L
1467.333 622.425 L
1470.038 623.167 L
1472.743 623.69 L
1475.448 623.797 L
1478.152 623.709 L
1480.857 623.68 L
1483.562 623.753 L
1486.267 623.864 L
1488.971 623.933 L
1491.676 623.891 L
1494.381 623.726 L
1497.086 623.531 L
1499.791 623.451 L
1502.495 623.56 L
1505.2 623.781 L
1507.905 623.919 L
1510.609 623.871 L
1513.314 623.797 L
1516.019 623.901 L
1518.724 624.222 L
1521.429 624.626 L
1524.133 624.933 L
1526.838 625.163 L
1529.543 625.478 L
1532.248 625.446 L
1534.952 624.709 L
1537.657 623.916 L
1540.362 623.363 L
1543.067 623.191 L
1545.771 623.379 L
1548.476 623.754 L
1551.181 624.094 L
1553.886 624.329 L
1556.59 624.587 L
1559.295 624.939 L
S
GR
GS
[0.75 0 0 0.75 0 0.25] CT
0.494 0.184 0.557 RC
1 LJ
2.667 LW
N
426 626 M
428.705 623.011 L
431.41 618.958 L
434.114 614.208 L
436.819 609.938 L
439.524 607.257 L
442.229 606.692 L
444.933 608.047 L
447.638 610.6 L
450.343 613.513 L
453.048 616.158 L
455.752 618.142 L
458.457 619.358 L
461.162 620.334 L
463.867 621.93 L
466.571 624.094 L
469.276 623.013 L
471.981 620.493 L
474.686 619.715 L
477.39 621.469 L
480.095 622.969 L
482.8 618.364 L
485.505 613.674 L
488.21 611.939 L
490.914 613.526 L
493.619 614.069 L
496.324 608.729 L
499.029 603.472 L
501.733 605.547 L
504.438 619.074 L
507.143 603.549 L
509.848 564.327 L
512.552 519.612 L
515.257 478.206 L
517.962 449.307 L
520.667 440.145 L
523.371 453.9 L
526.076 488.593 L
528.781 537.367 L
531.486 589.994 L
534.19 613.804 L
536.895 583.89 L
539.6 572.625 L
542.305 580.026 L
545.01 600.521 L
547.714 621.081 L
550.419 602.964 L
553.124 591.457 L
555.829 592.589 L
558.533 604.757 L
561.238 622.624 L
563.943 611.366 L
566.648 600.267 L
569.352 598.822 L
572.057 606.785 L
574.762 620.668 L
577.467 616.889 L
580.171 607.212 L
582.876 605.686 L
585.581 612.393 L
588.286 620.019 L
590.99 610.408 L
593.695 602.38 L
596.4 603.753 L
599.105 616.117 L
601.81 610.295 L
604.514 581.465 L
607.219 552.56 L
609.924 530.26 L
612.629 519.378 L
615.333 521.954 L
618.038 536.909 L
620.743 560.509 L
623.448 587.433 L
626.152 611.64 L
628.857 616.456 L
631.562 606.993 L
634.267 604.343 L
636.971 607.833 L
639.676 614.667 L
642.381 621.257 L
645.086 621.466 L
647.79 619.235 L
650.495 619.339 L
653.2 621.39 L
655.905 623.94 L
658.609 624.057 L
661.314 622.957 L
664.019 622.911 L
666.724 623.662 L
669.429 624.061 L
672.133 623.552 L
674.838 623.268 L
677.543 623.763 L
680.248 624.532 L
682.952 623.693 L
685.657 622.05 L
688.362 620.943 L
691.067 620.997 L
693.771 622.535 L
696.476 624.88 L
699.181 621.308 L
701.886 615.927 L
704.59 610.522 L
707.295 606.16 L
710 603.825 L
712.705 604.161 L
715.41 607.245 L
718.114 612.438 L
720.819 618.225 L
723.524 621.05 L
726.229 618.94 L
728.933 617.337 L
731.638 618.072 L
734.343 620.754 L
737.048 623.102 L
739.752 621.167 L
742.457 618.76 L
745.162 618.01 L
747.867 619.032 L
750.571 621.065 L
753.276 622.66 L
755.981 622.789 L
758.686 622.669 L
761.391 622.765 L
764.095 621.846 L
766.8 620.049 L
769.505 618.852 L
772.21 619.265 L
774.914 621.532 L
777.619 624.232 L
780.324 621.33 L
783.029 617.718 L
785.733 615.814 L
788.438 616.078 L
791.143 617.23 L
793.848 615.539 L
796.552 610.138 L
799.257 604.048 L
801.962 599.592 L
804.667 598.069 L
807.371 599.879 L
810.076 604.545 L
812.781 610.803 L
815.486 616.642 L
818.19 619.285 L
820.895 618.742 L
823.6 618.753 L
826.305 620.706 L
829.01 624.173 L
831.714 623.655 L
834.419 620.307 L
837.124 618.478 L
839.829 618.593 L
842.533 620.467 L
845.238 623.346 L
847.943 624.405 L
850.648 622.177 L
853.352 620.856 L
856.057 620.944 L
858.762 622.234 L
861.467 624.118 L
864.171 624.965 L
866.876 623.825 L
869.581 623.17 L
872.286 623.201 L
874.99 623.478 L
877.695 623.43 L
880.4 622.904 L
883.105 621.674 L
885.81 619.137 L
888.514 615.243 L
891.219 610.64 L
893.924 606.33 L
896.629 603.397 L
899.333 602.73 L
902.038 604.761 L
904.743 609.295 L
907.448 615.467 L
910.152 621.587 L
912.857 622.103 L
915.562 618.984 L
918.267 618.016 L
920.971 619.563 L
923.676 622.902 L
926.381 624.751 L
929.086 621.544 L
931.79 619.826 L
934.495 620.167 L
937.2 622.317 L
939.905 625.06 L
942.609 623.006 L
945.314 620.922 L
948.019 620.498 L
950.724 621.817 L
953.429 623.976 L
956.133 622.974 L
958.838 620.235 L
961.543 618.391 L
964.248 617.984 L
966.952 618.947 L
969.657 620.788 L
972.362 622.781 L
975.067 624.199 L
977.771 624.489 L
980.476 623.348 L
983.181 620.954 L
985.886 617.817 L
988.59 614.652 L
991.295 612.239 L
994 611.249 L
996.705 612.072 L
999.41 614.701 L
1002.114 618.706 L
1004.819 623.316 L
1007.524 624.348 L
1010.229 621.203 L
1012.933 619.723 L
1015.638 619.976 L
1018.343 621.496 L
1021.048 623.169 L
1023.752 623.237 L
1026.457 622.359 L
1029.162 622.155 L
1031.867 622.911 L
1034.571 624.258 L
1037.276 625.204 L
1039.981 624.649 L
1042.686 624.255 L
1045.391 624.094 L
1048.095 623.43 L
1050.8 622.277 L
1053.505 621.231 L
1056.209 620.686 L
1058.914 620.739 L
1061.619 621.278 L
1064.324 622.127 L
1067.029 623.135 L
1069.733 623.981 L
1072.438 623.778 L
1075.143 622.595 L
1077.848 621.392 L
1080.552 620.648 L
1083.257 620.487 L
1085.962 620.753 L
1088.667 621.139 L
1091.371 621.467 L
1094.076 621.851 L
1096.781 622.502 L
1099.486 623.445 L
1102.19 624.42 L
1104.895 624.92 L
1107.6 624.85 L
1110.305 624.813 L
1113.01 624.86 L
1115.714 624.734 L
1118.419 624.556 L
1121.124 624.618 L
1123.829 624.898 L
1126.533 624.896 L
1129.238 624.489 L
1131.943 624.282 L
1134.648 624.519 L
1137.352 624.549 L
1140.057 623.418 L
1142.762 621.908 L
1145.467 620.779 L
1148.171 620.445 L
1150.876 621.015 L
1153.581 622.295 L
1156.286 623.87 L
1158.99 625.204 L
1161.695 625.443 L
1164.4 625.242 L
1167.105 625.378 L
1169.81 625.545 L
1172.514 625.349 L
1175.219 624.626 L
1177.924 623.391 L
1180.629 621.955 L
1183.333 620.836 L
1186.038 620.543 L
1188.743 621.327 L
1191.448 622.819 L
1194.152 623.074 L
1196.857 621.157 L
1199.562 619.329 L
1202.267 618.722 L
1204.971 619.656 L
1207.676 621.89 L
1210.381 624.646 L
1213.086 624.194 L
1215.791 622.493 L
1218.495 622.082 L
1221.2 622.845 L
1223.905 623.578 L
1226.609 622.58 L
1229.314 621.119 L
1232.019 620.472 L
1234.724 620.973 L
1237.429 622.413 L
1240.133 624.251 L
1242.838 625.697 L
1245.543 625.065 L
1248.248 624.779 L
1250.952 624.54 L
1253.657 623.859 L
1256.362 623.276 L
1259.067 623.377 L
1261.771 624.37 L
1264.476 625.425 L
1267.181 623.584 L
1269.886 621.77 L
1272.59 620.733 L
1275.295 620.776 L
1278 621.865 L
1280.705 623.621 L
1283.41 624.815 L
1286.114 623.628 L
1288.819 622.416 L
1291.524 621.923 L
1294.229 622.184 L
1296.933 623.026 L
1299.638 624.158 L
1302.343 625.029 L
1305.048 624.7 L
1307.752 624.074 L
1310.457 623.854 L
1313.162 624.155 L
1315.867 624.891 L
1318.571 625.726 L
1321.276 625.152 L
1323.981 624.574 L
1326.686 624.448 L
1329.391 624.753 L
1332.095 625.238 L
1334.8 625.305 L
1337.505 624.984 L
1340.209 624.849 L
1342.914 625.013 L
1345.619 625.371 L
1348.324 625.714 L
1351.029 625.715 L
1353.733 625.563 L
1356.438 625.494 L
1359.143 625.503 L
1361.848 625.147 L
1364.552 624.072 L
1367.257 622.499 L
1369.962 620.769 L
1372.667 619.325 L
1375.371 618.609 L
1378.076 618.912 L
1380.781 620.249 L
1383.486 622.272 L
1386.19 623.971 L
1388.895 623.458 L
1391.6 622.286 L
1394.305 621.882 L
1397.01 622.385 L
1399.714 623.494 L
1402.419 624.668 L
1405.124 625.23 L
1407.829 625.29 L
1410.533 625.671 L
1413.238 625.32 L
1415.943 624.328 L
1418.648 623.512 L
1421.352 623.09 L
1424.057 623.052 L
1426.762 623.211 L
1429.467 623.41 L
1432.171 623.707 L
1434.876 624.234 L
1437.581 624.826 L
1440.286 624.673 L
1442.99 623.895 L
1445.695 623.234 L
1448.4 622.797 L
1451.105 622.297 L
1453.81 621.467 L
1456.514 620.474 L
1459.219 619.726 L
1461.924 619.534 L
1464.629 619.977 L
1467.333 620.907 L
1470.038 622.049 L
1472.743 623.123 L
1475.448 623.937 L
1478.152 624.413 L
1480.857 624.632 L
1483.562 624.86 L
1486.267 625.356 L
1488.971 625.749 L
1491.676 624.719 L
1494.381 623.771 L
1497.086 623.284 L
1499.791 623.526 L
1502.495 624.533 L
1505.2 625.479 L
1507.905 623.905 L
1510.609 622.435 L
1513.314 621.662 L
1516.019 621.76 L
1518.724 622.573 L
1521.429 623.619 L
1524.133 624.219 L
1526.838 624.265 L
1529.543 624.331 L
1532.248 624.219 L
1534.952 623.361 L
1537.657 622.227 L
1540.362 621.486 L
1543.067 621.502 L
1545.771 622.313 L
1548.476 623.668 L
1551.181 625.14 L
1553.886 625.692 L
1556.59 625.105 L
1559.295 625.054 L
S
GR
GS
[0.75 0 0 0.75 0 0.25] CT
0.467 0.675 0.188 RC
1 LJ
2.667 LW
N
426 626 M
428.705 624.998 L
431.41 622.782 L
434.114 619.573 L
436.819 615.939 L
439.524 612.566 L
442.229 610.196 L
444.933 609.54 L
447.638 611.092 L
450.343 614.838 L
453.048 619.806 L
455.752 621.797 L
458.457 618.427 L
461.162 616.276 L
463.867 617.248 L
466.571 621.203 L
469.276 625.169 L
471.981 620.143 L
474.686 617.686 L
477.39 619.072 L
480.095 623.619 L
482.8 620.061 L
485.505 613.834 L
488.21 610.951 L
490.914 612.441 L
493.619 614.436 L
496.324 609.52 L
499.029 603.045 L
501.733 603.55 L
504.438 616.309 L
507.143 608.591 L
509.848 569.586 L
512.552 524.63 L
515.257 482.562 L
517.962 452.764 L
520.667 442.659 L
523.371 455.562 L
526.076 489.571 L
528.781 537.845 L
531.486 590.189 L
534.19 614.455 L
536.895 584.389 L
539.6 573.152 L
542.305 580.484 L
545.01 600.663 L
547.714 618.66 L
550.419 601.74 L
553.124 590.333 L
555.829 591.241 L
558.533 602.952 L
561.238 620.28 L
563.943 614.42 L
566.648 604.017 L
569.352 603.079 L
572.057 611.283 L
574.762 624.535 L
577.467 612.607 L
580.171 603.461 L
582.876 602.582 L
585.581 610.001 L
588.286 619.327 L
590.99 610.983 L
593.695 602.538 L
596.4 603.495 L
599.105 615.925 L
601.81 611.765 L
604.514 582.632 L
607.219 553.317 L
609.924 530.374 L
612.629 518.689 L
615.333 520.459 L
618.038 534.796 L
620.743 558.153 L
623.448 585.375 L
626.152 610.978 L
628.857 619.999 L
631.562 608.76 L
634.267 605.507 L
636.971 608.948 L
639.676 616.089 L
642.381 621.922 L
645.086 618.865 L
647.79 615.986 L
650.495 616.335 L
653.2 619.325 L
655.905 623.205 L
658.609 623.034 L
661.314 620.748 L
664.019 620.239 L
666.724 621.625 L
669.429 624.154 L
672.133 624.387 L
674.838 622.208 L
677.543 621.066 L
680.248 621.136 L
682.952 622.045 L
685.657 623.164 L
688.362 623.93 L
691.067 624.041 L
693.771 623.317 L
696.476 621.999 L
699.181 620.66 L
701.886 619.772 L
704.59 619.473 L
707.295 619.487 L
710 619.376 L
712.705 619.106 L
715.41 619.141 L
718.114 619.928 L
720.819 621.526 L
723.524 623.585 L
726.229 625.308 L
728.933 624.744 L
731.638 624.286 L
734.343 624.526 L
737.048 624.712 L
739.752 624.223 L
742.457 623.822 L
745.162 623.936 L
747.867 624.153 L
750.571 623.616 L
753.276 622.74 L
755.981 622.348 L
758.686 622.675 L
761.391 623.117 L
764.095 622.518 L
766.8 621.311 L
769.505 620.73 L
772.21 621.456 L
774.914 623.605 L
777.619 625.168 L
780.324 621.681 L
783.029 618.758 L
785.733 617.192 L
788.438 617.402 L
791.143 619.187 L
793.848 620.997 L
796.552 619.538 L
799.257 615.847 L
801.962 612.543 L
804.667 610.786 L
807.371 610.983 L
810.076 612.947 L
812.781 615.911 L
815.486 618.57 L
818.19 619.646 L
820.895 619.637 L
823.6 620.162 L
826.305 621.879 L
829.01 624.181 L
831.714 623.381 L
834.419 621.054 L
837.124 619.77 L
839.829 619.971 L
842.533 621.51 L
845.238 623.791 L
847.943 624.971 L
850.648 623.469 L
853.352 622.633 L
856.057 622.807 L
858.762 623.676 L
861.467 624.547 L
864.171 624.666 L
866.876 624.603 L
869.581 625.074 L
872.286 625.894 L
874.99 624.638 L
877.695 623.534 L
880.4 622.856 L
883.105 622.408 L
885.81 621.291 L
888.514 618.87 L
891.219 615.591 L
893.924 612.312 L
896.629 609.905 L
899.333 609.093 L
902.038 610.258 L
904.743 613.272 L
907.448 617.333 L
910.152 620.502 L
912.857 620.14 L
915.562 618.464 L
918.267 618.212 L
920.971 619.923 L
923.676 623.088 L
926.381 624.553 L
929.086 621.558 L
931.79 619.775 L
934.495 619.832 L
937.2 621.575 L
939.905 624.297 L
942.609 624.687 L
945.314 622.735 L
948.019 622.112 L
950.724 622.841 L
953.429 623.901 L
956.133 623.041 L
958.838 621.405 L
961.543 620.577 L
964.248 620.962 L
966.952 622.364 L
969.657 624.108 L
972.362 624.795 L
975.067 624.368 L
977.771 624.511 L
980.476 624.116 L
983.181 621.868 L
985.886 619.023 L
988.59 616.513 L
991.295 615.004 L
994 614.897 L
996.705 616.262 L
999.41 618.807 L
1002.114 621.829 L
1004.819 623.549 L
1007.524 622.284 L
1010.229 621.021 L
1012.933 620.967 L
1015.638 622.148 L
1018.343 624.156 L
1021.048 625.582 L
1023.752 623.811 L
1026.457 622.893 L
1029.162 622.99 L
1031.867 623.867 L
1034.571 624.771 L
1037.276 624.439 L
1039.981 623.789 L
1042.686 623.684 L
1045.391 624.172 L
1048.095 625.032 L
1050.8 625.752 L
1053.505 624.814 L
1056.209 623.641 L
1058.914 622.404 L
1061.619 621.369 L
1064.324 620.907 L
1067.029 621.3 L
1069.733 622.581 L
1072.438 624.403 L
1075.143 624.694 L
1077.848 623.03 L
1080.552 621.873 L
1083.257 621.527 L
1085.962 621.86 L
1088.667 622.552 L
1091.371 623.387 L
1094.076 624.423 L
1096.781 625.526 L
1099.486 624.122 L
1102.19 622.244 L
1104.895 620.762 L
1107.6 620.12 L
1110.305 620.525 L
1113.01 621.875 L
1115.714 623.782 L
1118.419 625.404 L
1121.124 624.375 L
1123.829 623.416 L
1126.533 623.037 L
1129.238 623.05 L
1131.943 623.274 L
1134.648 623.711 L
1137.352 624.326 L
1140.057 624.448 L
1142.762 623.516 L
1145.467 622.426 L
1148.171 621.819 L
1150.876 621.953 L
1153.581 622.793 L
1156.286 624.062 L
1158.99 625.266 L
1161.695 625.245 L
1164.4 624.814 L
1167.105 624.812 L
1169.81 625.065 L
1172.514 625.109 L
1175.219 624.635 L
1177.924 623.837 L
1180.629 622.898 L
1183.333 622.056 L
1186.038 621.605 L
1188.743 621.758 L
1191.448 622.512 L
1194.152 623.563 L
1196.857 624.228 L
1199.562 624.033 L
1202.267 623.625 L
1204.971 623.299 L
1207.676 622.798 L
1210.381 622.105 L
1213.086 621.644 L
1215.791 621.852 L
1218.495 622.864 L
1221.2 624.297 L
1223.905 624.277 L
1226.609 622.832 L
1229.314 621.841 L
1232.019 621.735 L
1234.724 622.437 L
1237.429 623.536 L
1240.133 624.414 L
1242.838 624.714 L
1245.543 624.977 L
1248.248 625.607 L
1250.952 625.503 L
1253.657 624.807 L
1256.362 624.591 L
1259.067 624.785 L
1261.771 624.386 L
1264.476 623.142 L
1267.181 621.956 L
1269.886 621.41 L
1272.59 621.744 L
1275.295 622.817 L
1278 624.022 L
1280.705 624.259 L
1283.41 623.836 L
1286.114 623.897 L
1288.819 624.405 L
1291.524 624.046 L
1294.229 622.716 L
1296.933 621.616 L
1299.638 621.331 L
1302.343 622.009 L
1305.048 623.452 L
1307.752 625.159 L
1310.457 624.966 L
1313.162 623.963 L
1315.867 623.673 L
1318.571 624.05 L
1321.276 624.811 L
1323.981 625.595 L
1326.686 625.822 L
1329.391 625.562 L
1332.095 625.288 L
1334.8 624.888 L
1337.505 624.584 L
1340.209 624.589 L
1342.914 624.954 L
1345.619 625.556 L
1348.324 625.838 L
1351.029 625.469 L
1353.733 625.471 L
1356.438 625.785 L
1359.143 625.588 L
1361.848 625.179 L
1364.552 625.101 L
1367.257 625.464 L
1369.962 625.617 L
1372.667 624.725 L
1375.371 623.933 L
1378.076 623.566 L
1380.781 623.766 L
1383.486 624.48 L
1386.19 625.483 L
1388.895 625.513 L
1391.6 624.79 L
1394.305 624.443 L
1397.01 624.39 L
1399.714 624.433 L
1402.419 624.453 L
1405.124 624.426 L
1407.829 624.205 L
1410.533 623.659 L
1413.238 623.021 L
1415.943 622.682 L
1418.648 622.92 L
1421.352 623.78 L
1424.057 625.034 L
1426.762 625.466 L
1429.467 624.651 L
1432.171 624.527 L
1434.876 625.243 L
1437.581 625.298 L
1440.286 623.69 L
1442.99 622.359 L
1445.695 621.771 L
1448.4 622.133 L
1451.105 623.314 L
1453.81 624.69 L
1456.514 624.458 L
1459.219 623.457 L
1461.924 623.085 L
1464.629 623.465 L
1467.333 624.299 L
1470.038 624.971 L
1472.743 625.006 L
1475.448 625.083 L
1478.152 625.487 L
1480.857 625.044 L
1483.562 624.099 L
1486.267 623.454 L
1488.971 623.367 L
1491.676 623.804 L
1494.381 624.436 L
1497.086 624.757 L
1499.791 624.769 L
1502.495 624.906 L
1505.2 624.847 L
1507.905 624.054 L
1510.609 623.107 L
1513.314 622.558 L
1516.019 622.658 L
1518.724 623.337 L
1521.429 624.141 L
1524.133 624.327 L
1526.838 624.058 L
1529.543 624.136 L
1532.248 624.78 L
1534.952 625.492 L
1537.657 624.734 L
1540.362 623.976 L
1543.067 623.801 L
1545.771 624.246 L
1548.476 625.008 L
1551.181 625.185 L
1553.886 624.713 L
1556.59 624.57 L
1559.295 624.867 L
S
GR
GS
[0.75 0 0 0.75 432.75 602.875] CT
/Helvetica 36 F
GS
[1 0 0 1 0 0] CT
0 14.5 moveto 
1 -1 scale
(PornHub) t 
GR
GR
GS
[0.75 0 0 0.75 0 0.25] CT
0 0.447 0.741 RC
1 LJ
2.667 LW
N
534 803.5 M
574 803.5 L
S
GR
GS
[0.75 0 0 0.75 578.25 602.875] CT
/Helvetica 36 F
GS
[1 0 0 1 0 0] CT
0 14.5 moveto 
1 -1 scale
(XNXX) t 
GR
GR
GS
[0.75 0 0 0.75 0 0.25] CT
0.851 0.325 0.098 RC
1 LJ
2.667 LW
N
728 803.5 M
768 803.5 L
S
GR
GS
[0.75 0 0 0.75 690.75 602.875] CT
/Helvetica 36 F
GS
[1 0 0 1 0 0] CT
0 14.5 moveto 
1 -1 scale
(XHamster) t 
GR
GR
GS
[0.75 0 0 0.75 0 0.25] CT
0.929 0.694 0.125 RC
1 LJ
2.667 LW
N
878 803.5 M
918 803.5 L
S
GR
GS
[0.75 0 0 0.75 849.75 602.875] CT
/Helvetica 36 F
GS
[1 0 0 1 0 0] CT
0 14.5 moveto 
1 -1 scale
(YouPorn) t 
GR
GR
GS
[0.75 0 0 0.75 0 0.25] CT
0.494 0.184 0.557 RC
1 LJ
2.667 LW
N
1090 803.5 M
1130 803.5 L
S
GR
GS
[0.75 0 0 0.75 993.75 602.875] CT
/Helvetica 36 F
GS
[1 0 0 1 0 0] CT
0 14.5 moveto 
1 -1 scale
(Xvideos) t 
GR
GR
GS
[0.75 0 0 0.75 0 0.25] CT
0.467 0.675 0.188 RC
1 LJ
2.667 LW
N
1282 803.5 M
1322 803.5 L
S
GR
%%Trailer
%%Pages: 1
%%EOF
